EESchema Schematic File Version 4
LIBS:EXTboard-cache
EELAYER 26 0
EELAYER END
$Descr A4 11693 8268
encoding utf-8
Sheet 1 1
Title "EXTboard (for Escornabot)"
Date "2018-07-02"
Rev "v2.3k"
Comp "Escornabot EXT | ext.escornabot.org"
Comment1 "Licensed under CERN OHL v1.2"
Comment2 "Copyright © 2018 Xoán Sampaíño"
Comment3 ""
Comment4 ""
$EndDescr
$Comp
L EXTboard:Conn_01x02 J1
U 1 1 5AB2167E
P 1500 4600
F 0 "J1" H 1500 4400 50  0000 C CNN
F 1 "Conn_01x02" H 1500 4700 50  0000 C CNN
F 2 "EXTboard:JST_XH_B02B-XH-A_1x02_P2.50mm_Vertical" H 1500 4600 50  0001 C CNN
F 3 "" H 1500 4600 50  0001 C CNN
	1    1500 4600
	1    0    0    1   
$EndComp
$Comp
L EXTboard:ULN2803A U1
U 1 1 5AB21922
P 7300 4300
F 0 "U1" H 7300 4825 50  0000 C CNN
F 1 "ULN2803A" H 7300 4750 50  0000 C CNN
F 2 "EXTboard:DIP-18_W7.62mm" H 7350 3650 50  0001 L CNN
F 3 "http://www.st.com/resource/en/datasheet/uln2803a.pdf" H 7400 4200 50  0001 C CNN
	1    7300 4300
	1    0    0    -1  
$EndComp
$Comp
L EXTboard:Buzzer BZ1
U 1 1 5AB2269E
P 10700 1700
F 0 "BZ1" H 10850 1750 50  0000 L CNN
F 1 "Buzzer" H 10850 1650 50  0000 L CNN
F 2 "EXTboard:Buzzer_D9.0mm_P4.0mm" V 10675 1800 50  0001 C CNN
F 3 "https://www.cui.com/product/resource/cst-951ap.pdf" V 10675 1800 50  0001 C CNN
	1    10700 1700
	1    0    0    -1  
$EndComp
Text Notes 800  2400 0    60   ~ 0
Copyright © 2018 Xoán Sampaíño\n\nThis documentation describes Open Hardware and is licensed under the\nCERN OHL v1.2.\n\nYou may redistribute and modify this documentation under the terms of the\nCERN OHL v1.2. (http://ohwr.org/cernohl). This documentation is distributed\nWITHOUT ANY EXPRESS OR IMPLIED WARRANTY, INCLUDING OF\nMERCHANTABILITY, SATISFACTORY QUALITY AND FITNESS FOR A\nPARTICULAR PURPOSE. Please see the CERN OHL v1.2 for applicable\nconditions.
Text Notes 750  1150 0    295  ~ 59
EXTboard v2.3k
$Comp
L EXTboard:GND #PWR?
U 1 1 5AB2C98E
P 7300 5300
F 0 "#PWR?" H 7300 5050 50  0001 C CNN
F 1 "GND" H 7300 5150 50  0000 C CNN
F 2 "" H 7300 5300 50  0001 C CNN
F 3 "" H 7300 5300 50  0001 C CNN
	1    7300 5300
	1    0    0    -1  
$EndComp
Text Label 7900 4100 0    50   ~ 0
ML4
Text Label 7900 4200 0    50   ~ 0
ML3
Text Label 7900 4300 0    50   ~ 0
ML2
Text Label 7900 4400 0    50   ~ 0
ML1
Text Label 7900 4500 0    50   ~ 0
MR4
Text Label 7900 4600 0    50   ~ 0
MR3
Text Label 7900 4700 0    50   ~ 0
MR2
Text Label 7900 4800 0    50   ~ 0
MR1
$Comp
L EXTboard:Stepper_Motor_unipolar_5pin M1
U 1 1 5AB2E262
P 6100 1800
F 0 "M1" H 6250 1900 50  0000 L CNN
F 1 "Stepper_Motor_unipolar_5pin" H 5900 1600 50  0000 C TNN
F 2 "EXTboard:JST_XH_B05B-XH-A_1x05_P2.50mm_Vertical" H 6110 1790 50  0001 C CNN
F 3 "" H 6110 1790 50  0001 C CNN
	1    6100 1800
	1    0    0    -1  
$EndComp
$Comp
L EXTboard:Stepper_Motor_unipolar_5pin M2
U 1 1 5AB2E2F0
P 7300 1800
F 0 "M2" H 7450 1900 50  0000 L CNN
F 1 "Stepper_Motor_unipolar_5pin" H 7200 1600 50  0000 C TNN
F 2 "EXTboard:JST_XH_B05B-XH-A_1x05_P2.50mm_Vertical" H 7310 1790 50  0001 C CNN
F 3 "" H 7310 1790 50  0001 C CNN
	1    7300 1800
	1    0    0    -1  
$EndComp
Text Label 5700 1900 2    50   ~ 0
ML1
Text Label 5700 1700 2    50   ~ 0
ML3
Text Label 6200 1400 1    50   ~ 0
ML2
Text Label 6000 1400 1    50   ~ 0
ML4
Text Label 6900 1900 2    50   ~ 0
MR1
Text Label 6900 1700 2    50   ~ 0
MR3
Text Label 7400 1400 1    50   ~ 0
MR2
Text Label 7200 1400 1    50   ~ 0
MR4
Text Notes 2700 1400 0    120  Italic 24
(for Escornabot)
Text Label 5000 5100 0    50   ~ 0
D10
Text Label 5000 5000 0    50   ~ 0
D16
Text Label 5000 4900 0    50   ~ 0
D14
Text Label 5000 4800 0    50   ~ 0
D15
Text Label 5000 4600 0    50   ~ 0
A0
Text Label 5000 4300 0    50   ~ 0
A3
Text Label 5000 4400 0    50   ~ 0
A2
Text Label 5000 4500 0    50   ~ 0
A1
$Comp
L EXTboard:GND #PWR?
U 1 1 5AB4606E
P 4300 6500
F 0 "#PWR?" H 4300 6250 50  0001 C CNN
F 1 "GND" H 4300 6350 50  0000 C CNN
F 2 "" H 4300 6500 50  0001 C CNN
F 3 "" H 4300 6500 50  0001 C CNN
	1    4300 6500
	1    0    0    -1  
$EndComp
$Comp
L EXTboard:VCC #PWR?
U 1 1 5AB46407
P 4400 3800
F 0 "#PWR?" H 4400 3650 50  0001 C CNN
F 1 "VCC" H 4400 3950 50  0000 C CNN
F 2 "" H 4400 3800 50  0001 C CNN
F 3 "" H 4400 3800 50  0001 C CNN
	1    4400 3800
	1    0    0    -1  
$EndComp
Text Label 5000 5200 0    50   ~ 0
D9
Text Label 5000 5300 0    50   ~ 0
D8
Text Label 5000 5400 0    50   ~ 0
D7
Text Label 5000 5500 0    50   ~ 0
D6
Text Label 5000 5600 0    50   ~ 0
D5
Text Label 5000 5700 0    50   ~ 0
D4
Text Label 5000 5800 0    50   ~ 0
D3
Text Label 5000 5900 0    50   ~ 0
D2
Text Label 6800 4800 2    50   ~ 0
D2
Text Label 6800 4700 2    50   ~ 0
D3
Text Label 6800 4600 2    50   ~ 0
D4
Text Label 6800 4500 2    50   ~ 0
D5
Text Label 6800 4400 2    50   ~ 0
D6
Text Label 6800 4300 2    50   ~ 0
D7
Text Label 6800 4200 2    50   ~ 0
D8
Text Label 6800 4100 2    50   ~ 0
D9
$Comp
L EXTboard:Conn_01x02 JP1
U 1 1 5AB48CDB
P 10100 1300
F 0 "JP1" H 10100 1100 50  0000 C CNN
F 1 "Conn_01x02" H 10100 1400 50  0000 C CNN
F 2 "EXTboard:PinHeader_1x02_P2.54mm_Vertical" H 10100 1300 50  0001 C CNN
F 3 "" H 10100 1300 50  0001 C CNN
	1    10100 1300
	0    1    -1   0   
$EndComp
Text Label 9900 1600 2    50   ~ 0
D16
$Comp
L EXTboard:GND #PWR?
U 1 1 5AB48F45
P 10500 2000
F 0 "#PWR?" H 10500 1750 50  0001 C CNN
F 1 "GND" H 10500 1850 50  0000 C CNN
F 2 "" H 10500 2000 50  0001 C CNN
F 3 "" H 10500 2000 50  0001 C CNN
	1    10500 2000
	1    0    0    -1  
$EndComp
$Comp
L EXTboard:CP C2
U 1 1 5AB4B06C
P 9850 5000
F 0 "C2" H 9875 5100 50  0000 L CNN
F 1 "220uF" H 9875 4900 50  0000 L CNN
F 2 "EXTboard:CP_Radial_D6.3mm_P2.50mm" H 9888 4850 50  0001 C CNN
F 3 "" H 9850 5000 50  0001 C CNN
	1    9850 5000
	0    1    1    0   
$EndComp
$Comp
L EXTboard:Conn_01x08 J3
U 1 1 5AB4D03A
P 9200 4400
F 0 "J3" H 9200 4800 50  0000 C CNN
F 1 "Conn_01x08" V 9300 4350 50  0000 C CNN
F 2 "EXTboard:PinHeader_1x08_P2.54mm_Vertical" H 9200 4400 50  0001 C CNN
F 3 "" H 9200 4400 50  0001 C CNN
	1    9200 4400
	-1   0    0    -1  
$EndComp
$Comp
L EXTboard:Conn_01x08 J4
U 1 1 5AB4D266
P 9700 4400
F 0 "J4" H 9700 4800 50  0000 C CNN
F 1 "Conn_01x08" V 9800 4350 50  0000 C CNN
F 2 "EXTboard:PinHeader_1x08_P2.54mm_Vertical" H 9700 4400 50  0001 C CNN
F 3 "" H 9700 4400 50  0001 C CNN
	1    9700 4400
	-1   0    0    -1  
$EndComp
$Comp
L EXTboard:Conn_01x08 J5
U 1 1 5AB4D394
P 10400 4400
F 0 "J5" H 10400 4800 50  0000 C CNN
F 1 "Conn_01x08" V 10500 4350 50  0000 C CNN
F 2 "EXTboard:PinHeader_1x08_P2.54mm_Vertical" H 10400 4400 50  0001 C CNN
F 3 "" H 10400 4400 50  0001 C CNN
	1    10400 4400
	-1   0    0    -1  
$EndComp
$Comp
L EXTboard:GND #PWR?
U 1 1 5AB4D4D0
P 9500 5300
F 0 "#PWR?" H 9500 5050 50  0001 C CNN
F 1 "GND" H 9500 5150 50  0000 C CNN
F 2 "" H 9500 5300 50  0001 C CNN
F 3 "" H 9500 5300 50  0001 C CNN
	1    9500 5300
	1    0    0    -1  
$EndComp
$Comp
L EXTboard:VCC #PWR?
U 1 1 5AB4D828
P 10000 3800
F 0 "#PWR?" H 10000 3650 50  0001 C CNN
F 1 "VCC" H 10000 3950 50  0000 C CNN
F 2 "" H 10000 3800 50  0001 C CNN
F 3 "" H 10000 3800 50  0001 C CNN
	1    10000 3800
	1    0    0    -1  
$EndComp
Text Label 10700 4800 0    50   ~ 0
D10
Text Label 10700 4700 0    50   ~ 0
D16
Text Label 10700 4600 0    50   ~ 0
D14
Text Label 10700 4500 0    50   ~ 0
D15
Text Label 10700 4400 0    50   ~ 0
A0
Text Label 10700 4100 0    50   ~ 0
A3
Text Label 10700 4200 0    50   ~ 0
A2
Text Label 10700 4300 0    50   ~ 0
A1
Text Notes 700  3100 0    100  ~ 20
Power
Text Notes 3000 3100 0    100  ~ 20
Arduino Pro Micro
Text Notes 700  6500 0    100  ~ 20
Mounting Holes
Text Notes 5400 800  0    100  ~ 20
Motors
Text Notes 6200 3100 0    100  ~ 20
Motor Control
Text Notes 9800 800  0    100  ~ 20
Buzzer
Text Notes 8800 3100 0    100  ~ 20
Extension Header
$Comp
L EXTboard:C C1
U 1 1 5AB490A0
P 7550 5100
F 0 "C1" H 7575 5200 50  0000 L CNN
F 1 "0.1uF" H 7575 5000 50  0000 L CNN
F 2 "EXTboard:C_Disc_D3.0mm_W1.6mm_P2.50mm" H 7588 4950 50  0001 C CNN
F 3 "" H 7550 5100 50  0001 C CNN
	1    7550 5100
	0    1    1    0   
$EndComp
NoConn ~ 4200 6200
$Comp
L EXTboard:Arduino_Pro_Micro A1
U 1 1 5ABA0CE4
P 4300 5100
F 0 "A1" H 4600 4100 60  0000 C CNN
F 1 "Arduino_Pro_Micro" H 4900 4000 60  0000 C CNN
F 2 "EXTboard:Arduino_Pro_Micro" H 4300 5550 60  0001 C CNN
F 3 "https://cdn.sparkfun.com/datasheets/Dev/Arduino/Boards/ProMini16MHzv1.pdf" H 4300 5550 60  0001 C CNN
	1    4300 5100
	1    0    0    -1  
$EndComp
NoConn ~ 1700 4200
$Comp
L EXTboard:Conn_01x04 J2
U 1 1 5AC2DD45
P 8300 1500
F 0 "J2" H 8300 1200 50  0000 C CNN
F 1 "Conn_01x04" H 8300 1700 50  0000 C CNN
F 2 "EXTboard:PinSocket_1x04_P2.54mm_Vertical" H 8300 1500 50  0001 C CNN
F 3 "" H 8300 1500 50  0001 C CNN
	1    8300 1500
	-1   0    0    1   
$EndComp
Text Label 3600 5800 2    50   ~ 0
TX
Text Label 3600 5900 2    50   ~ 0
RX
$Comp
L EXTboard:VCC #PWR?
U 1 1 5AC2EEE6
P 8600 1100
F 0 "#PWR?" H 8600 950 50  0001 C CNN
F 1 "VCC" H 8600 1250 50  0000 C CNN
F 2 "" H 8600 1100 50  0001 C CNN
F 3 "" H 8600 1100 50  0001 C CNN
	1    8600 1100
	1    0    0    -1  
$EndComp
Text Label 9400 1500 0    50   ~ 0
RX
Text Notes 8100 800  0    100  ~ 20
Bluetooth
$Comp
L EXTboard:R R2
U 1 1 5ACCEB41
P 9150 1600
F 0 "R2" V 9230 1600 50  0000 C CNN
F 1 "1K8" V 9150 1600 50  0000 C CNN
F 2 "EXTboard:R_Axial_DIN0207_L6.3mm_D2.5mm_P2.54mm_Vertical" V 9080 1600 50  0001 C CNN
F 3 "" H 9150 1600 50  0001 C CNN
	1    9150 1600
	0    1    1    0   
$EndComp
$Comp
L EXTboard:R R1
U 1 1 5ACCED49
P 8800 1850
F 0 "R1" V 8880 1850 50  0000 C CNN
F 1 "3K3" V 8800 1850 50  0000 C CNN
F 2 "EXTboard:R_Axial_DIN0207_L6.3mm_D2.5mm_P2.54mm_Vertical" V 8730 1850 50  0001 C CNN
F 3 "" H 8800 1850 50  0001 C CNN
	1    8800 1850
	1    0    0    -1  
$EndComp
Text Label 9400 1600 0    50   ~ 0
TX
$Comp
L EXTboard:GND #PWR?
U 1 1 5AC2EFB7
P 8600 2300
F 0 "#PWR?" H 8600 2050 50  0001 C CNN
F 1 "GND" H 8600 2150 50  0000 C CNN
F 2 "" H 8600 2300 50  0001 C CNN
F 3 "" H 8600 2300 50  0001 C CNN
	1    8600 2300
	1    0    0    -1  
$EndComp
Text Label 8700 1600 0    50   ~ 0
TX3V3
$Comp
L EXTboard:R R3
U 1 1 5ACFA8B4
P 10350 1600
F 0 "R3" V 10430 1600 50  0000 C CNN
F 1 "100R" V 10350 1600 50  0000 C CNN
F 2 "EXTboard:R_Axial_DIN0207_L6.3mm_D2.5mm_P7.62mm_Horizontal" V 10280 1600 50  0001 C CNN
F 3 "" H 10350 1600 50  0001 C CNN
	1    10350 1600
	0    -1   -1   0   
$EndComp
Text Notes 2900 6300 0    60   Italic 0
Not connected because\ncompatibility with Pro Mini
$Comp
L EXTboard:+VSW #PWR?
U 1 1 5B3759FB
P 4200 3800
F 0 "#PWR?" H 4200 3650 50  0001 C CNN
F 1 "+VSW" H 4200 3940 50  0000 C CNN
F 2 "" H 4200 3800 50  0001 C CNN
F 3 "" H 4200 3800 50  0001 C CNN
	1    4200 3800
	1    0    0    -1  
$EndComp
$Comp
L EXTboard:GND #PWR?
U 1 1 5AB215E7
P 1200 4800
F 0 "#PWR?" H 1200 4550 50  0001 C CNN
F 1 "GND" H 1200 4650 50  0000 C CNN
F 2 "" H 1200 4800 50  0001 C CNN
F 3 "" H 1200 4800 50  0001 C CNN
	1    1200 4800
	1    0    0    -1  
$EndComp
Wire Notes Line
	5200 2800 5200 500 
Wire Notes Line
	7900 500  7900 2800
Wire Notes Line
	11200 6000 6000 6000
Wire Notes Line
	500  6200 2800 6200
Wire Notes Line
	2800 2800 2800 7800
Wire Notes Line
	6000 2800 6000 7800
Wire Notes Line
	9600 500  9600 2800
Wire Notes Line
	500  2800 11200 2800
Connection ~ 4300 6300
Wire Wire Line
	4400 6300 4300 6300
Wire Wire Line
	4400 6200 4400 6300
Wire Wire Line
	4300 6200 4300 6300
Wire Wire Line
	4200 3800 4200 4000
Wire Wire Line
	4400 3800 4400 4000
Wire Wire Line
	4900 5600 5000 5600
Wire Wire Line
	4900 5500 5000 5500
Wire Wire Line
	5000 5400 4900 5400
Wire Wire Line
	4900 5300 5000 5300
Wire Wire Line
	4900 5200 5000 5200
Wire Wire Line
	10100 1500 10100 1600
Connection ~ 7300 5100
Wire Wire Line
	7400 5100 7300 5100
Wire Wire Line
	7800 5100 7700 5100
Wire Wire Line
	10600 4800 10700 4800
Wire Wire Line
	10600 4700 10700 4700
Wire Wire Line
	10600 4600 10700 4600
Wire Wire Line
	10600 4500 10700 4500
Wire Wire Line
	10600 4400 10700 4400
Wire Wire Line
	10600 4300 10700 4300
Wire Wire Line
	10600 4200 10700 4200
Wire Wire Line
	10600 4100 10700 4100
Connection ~ 10000 4100
Wire Wire Line
	9900 4100 10000 4100
Connection ~ 10000 4200
Wire Wire Line
	10000 4200 9900 4200
Connection ~ 10000 4300
Wire Wire Line
	10000 4300 9900 4300
Connection ~ 10000 4400
Wire Wire Line
	10000 4400 9900 4400
Connection ~ 10000 4500
Wire Wire Line
	10000 4500 9900 4500
Wire Wire Line
	10200 4800 9900 4800
Connection ~ 9500 4800
Wire Wire Line
	9500 4800 9400 4800
Connection ~ 9500 4700
Wire Wire Line
	9500 4700 9400 4700
Connection ~ 9500 4600
Wire Wire Line
	9500 4600 9400 4600
Connection ~ 9500 4500
Wire Wire Line
	9500 4500 9400 4500
Connection ~ 9500 4400
Wire Wire Line
	9500 4400 9400 4400
Connection ~ 9500 4300
Wire Wire Line
	9500 4300 9400 4300
Connection ~ 9500 4200
Wire Wire Line
	9400 4200 9500 4200
Wire Wire Line
	9500 4100 9400 4100
Wire Wire Line
	9500 4100 9500 4200
Wire Wire Line
	9900 1600 10000 1600
Wire Wire Line
	10000 1600 10000 1500
Wire Wire Line
	10500 1800 10600 1800
Wire Wire Line
	10500 2000 10500 1800
Wire Wire Line
	6800 4800 6900 4800
Wire Wire Line
	6800 4700 6900 4700
Wire Wire Line
	6800 4600 6900 4600
Wire Wire Line
	6800 4500 6900 4500
Wire Wire Line
	6800 4400 6900 4400
Wire Wire Line
	6800 4300 6900 4300
Wire Wire Line
	6800 4200 6900 4200
Wire Wire Line
	6800 4100 6900 4100
Wire Wire Line
	4900 5700 5000 5700
Wire Wire Line
	4900 5800 5000 5800
Wire Wire Line
	5000 5900 4900 5900
Wire Wire Line
	4900 5100 5000 5100
Wire Wire Line
	4900 5000 5000 5000
Wire Wire Line
	4900 4900 5000 4900
Wire Wire Line
	4900 4800 5000 4800
Wire Wire Line
	4900 4600 5000 4600
Wire Wire Line
	4900 4500 5000 4500
Wire Wire Line
	4900 4400 5000 4400
Wire Wire Line
	4900 4300 5000 4300
Wire Wire Line
	5700 1700 5800 1700
Wire Wire Line
	7100 1100 7100 1500
Wire Wire Line
	7400 1400 7400 1500
Wire Wire Line
	7200 1400 7200 1500
Wire Wire Line
	6900 1700 7000 1700
Wire Wire Line
	6900 1900 7000 1900
Wire Wire Line
	5900 1500 5900 1100
Wire Wire Line
	6200 1400 6200 1500
Wire Wire Line
	6000 1400 6000 1500
Wire Wire Line
	5700 1900 5800 1900
Wire Wire Line
	7700 4800 7900 4800
Wire Wire Line
	7700 4700 7900 4700
Wire Wire Line
	7700 4600 7900 4600
Wire Wire Line
	7700 4500 7900 4500
Wire Wire Line
	7700 4400 7900 4400
Wire Wire Line
	7700 4300 7900 4300
Wire Wire Line
	7700 4200 7900 4200
Wire Wire Line
	7700 4100 7900 4100
Wire Wire Line
	7300 5000 7300 5100
Wire Wire Line
	1200 4600 1200 4800
Wire Wire Line
	1000 4600 1200 4600
Wire Wire Line
	1200 4500 1300 4500
Wire Wire Line
	1200 3800 1200 4100
Wire Wire Line
	8500 1300 8600 1300
Wire Wire Line
	8600 1300 8600 1100
Wire Wire Line
	8500 1400 8600 1400
Wire Wire Line
	8600 1400 8600 2100
Wire Wire Line
	8500 1500 9400 1500
Wire Wire Line
	8500 1600 8800 1600
Wire Wire Line
	3700 5900 3600 5900
Wire Wire Line
	3700 5800 3600 5800
Wire Wire Line
	10200 5000 10000 5000
Connection ~ 10200 4800
Wire Wire Line
	9700 5000 9500 5000
Connection ~ 9500 5000
Wire Notes Line
	8600 2800 8600 6000
Wire Wire Line
	9400 1600 9300 1600
Wire Wire Line
	8800 1700 8800 1600
Connection ~ 8800 1600
Wire Wire Line
	8800 2000 8800 2100
Wire Wire Line
	8800 2100 8600 2100
Connection ~ 8600 2100
Wire Wire Line
	10500 1600 10600 1600
Wire Wire Line
	10100 1600 10200 1600
Wire Wire Line
	10000 3800 10000 4100
Wire Wire Line
	10200 3800 10200 4700
Wire Wire Line
	10000 4600 9900 4600
Wire Wire Line
	9900 4700 10200 4700
Connection ~ 10200 4700
$Comp
L EXTboard:+VSW #PWR?
U 1 1 5B375B0B
P 7800 3800
F 0 "#PWR?" H 7800 3650 50  0001 C CNN
F 1 "+VSW" H 7800 3940 50  0000 C CNN
F 2 "" H 7800 3800 50  0001 C CNN
F 3 "" H 7800 3800 50  0001 C CNN
	1    7800 3800
	1    0    0    -1  
$EndComp
$Comp
L EXTboard:+BATT #PWR?
U 1 1 5AB28EE2
P 1200 3800
F 0 "#PWR?" H 1200 3650 50  0001 C CNN
F 1 "+BATT" H 1200 3940 50  0000 C CNN
F 2 "" H 1200 3800 50  0001 C CNN
F 3 "" H 1200 3800 50  0001 C CNN
	1    1200 3800
	1    0    0    -1  
$EndComp
$Comp
L EXTboard:+VSW #PWR?
U 1 1 5B37AAF2
P 1800 3800
F 0 "#PWR?" H 1800 3650 50  0001 C CNN
F 1 "+VSW" H 1800 3940 50  0000 C CNN
F 2 "" H 1800 3800 50  0001 C CNN
F 3 "" H 1800 3800 50  0001 C CNN
	1    1800 3800
	1    0    0    -1  
$EndComp
Wire Wire Line
	1000 4100 1200 4100
Connection ~ 1200 4100
$Comp
L EXTboard:+VSW #PWR?
U 1 1 5B37F987
P 1200 5400
F 0 "#PWR?" H 1200 5250 50  0001 C CNN
F 1 "+VSW" H 1200 5540 50  0000 C CNN
F 2 "" H 1200 5400 50  0001 C CNN
F 3 "" H 1200 5400 50  0001 C CNN
	1    1200 5400
	1    0    0    -1  
$EndComp
$Comp
L EXTboard:VCC #PWR?
U 1 1 5B37FDE1
P 1800 5400
F 0 "#PWR?" H 1800 5250 50  0001 C CNN
F 1 "VCC" H 1800 5550 50  0000 C CNN
F 2 "" H 1800 5400 50  0001 C CNN
F 3 "" H 1800 5400 50  0001 C CNN
	1    1800 5400
	1    0    0    -1  
$EndComp
$Comp
L EXTboard:PWR_FLAG #FLG?
U 1 1 5B37FFBC
P 1000 4100
F 0 "#FLG?" H 1000 4175 50  0001 C CNN
F 1 "PWR_FLAG" H 1000 4250 50  0000 C CNN
F 2 "" H 1000 4100 50  0001 C CNN
F 3 "" H 1000 4100 50  0001 C CNN
	1    1000 4100
	0    -1   -1   0   
$EndComp
$Comp
L EXTboard:PWR_FLAG #FLG?
U 1 1 5B38018A
P 1000 5600
F 0 "#FLG?" H 1000 5675 50  0001 C CNN
F 1 "PWR_FLAG" H 1000 5750 50  0000 C CNN
F 2 "" H 1000 5600 50  0001 C CNN
F 3 "" H 1000 5600 50  0001 C CNN
	1    1000 5600
	0    -1   -1   0   
$EndComp
$Comp
L EXTboard:PWR_FLAG #FLG?
U 1 1 5B3801D4
P 1600 5600
F 0 "#FLG?" H 1600 5675 50  0001 C CNN
F 1 "PWR_FLAG" H 1600 5750 50  0000 C CNN
F 2 "" H 1600 5600 50  0001 C CNN
F 3 "" H 1600 5600 50  0001 C CNN
	1    1600 5600
	0    -1   -1   0   
$EndComp
$Comp
L EXTboard:PWR_FLAG #FLG?
U 1 1 5B38021E
P 1000 4600
F 0 "#FLG?" H 1000 4675 50  0001 C CNN
F 1 "PWR_FLAG" H 1000 4750 50  0000 C CNN
F 2 "" H 1000 4600 50  0001 C CNN
F 3 "" H 1000 4600 50  0001 C CNN
	1    1000 4600
	0    -1   -1   0   
$EndComp
Wire Wire Line
	1200 5400 1200 5600
Wire Wire Line
	1800 5400 1800 5600
Connection ~ 1200 4600
Wire Wire Line
	1200 5600 1000 5600
Wire Wire Line
	1800 5600 1600 5600
$Comp
L EXTboard:GND #PWR?
U 1 1 5B382862
P 3600 5300
F 0 "#PWR?" H 3600 5050 50  0001 C CNN
F 1 "GND" H 3600 5150 50  0000 C CNN
F 2 "" H 3600 5300 50  0001 C CNN
F 3 "" H 3600 5300 50  0001 C CNN
	1    3600 5300
	1    0    0    -1  
$EndComp
$Comp
L EXTboard:SW_Push SW3
U 1 1 5B382A49
P 3600 4900
F 0 "SW3" H 3650 5000 50  0000 L CNN
F 1 "SW_RESET" H 3600 4840 50  0000 C CNN
F 2 "EXTboard:SW_PUSH_6mm_H5mm" H 3600 5100 50  0001 C CNN
F 3 "" H 3600 5100 50  0001 C CNN
	1    3600 4900
	0    -1   1    0   
$EndComp
Wire Wire Line
	3600 4600 3700 4600
Wire Wire Line
	3600 4600 3600 4700
Wire Wire Line
	3600 5100 3600 5300
$Comp
L EXTboard:SW_SPDT SW1
U 1 1 5B3A7896
P 1500 4100
F 0 "SW1" H 1500 4270 50  0000 C CNN
F 1 "SW_SPDT" H 1500 3900 50  0000 C CNN
F 2 "EXTboard:PinHeader_1x03_P2.54mm_Vertical" H 1500 4100 50  0001 C CNN
F 3 "" H 1500 4100 50  0001 C CNN
	1    1500 4100
	1    0    0    -1  
$EndComp
Wire Wire Line
	1700 4000 1800 4000
Wire Wire Line
	1800 3800 1800 4000
$Comp
L EXTboard:SW_SPDT SW2
U 1 1 5B3A8139
P 2100 4100
F 0 "SW2" H 2100 4270 50  0000 C CNN
F 1 "SW_SPDT" H 2100 3900 50  0000 C CNN
F 2 "EXTboard:PinHeader_1x03_P2.54mm_Vertical" H 2100 4100 50  0001 C CNN
F 3 "" H 2100 4100 50  0001 C CNN
	1    2100 4100
	1    0    0    -1  
$EndComp
Wire Wire Line
	1800 4100 1900 4100
Connection ~ 1800 4000
Wire Wire Line
	2300 4000 2400 4000
Wire Wire Line
	2400 4000 2400 3800
NoConn ~ 2300 4200
$Comp
L EXTboard:VMOT #PWR?
U 1 1 5B3AB732
P 2400 3800
F 0 "#PWR?" H 2400 3650 50  0001 C CNN
F 1 "VMOT" H 2400 3950 50  0000 C CNN
F 2 "" H 2400 3800 50  0001 C CNN
F 3 "" H 2400 3800 50  0001 C CNN
	1    2400 3800
	1    0    0    -1  
$EndComp
$Comp
L EXTboard:VMOT #PWR?
U 1 1 5B3ABAA6
P 10200 3800
F 0 "#PWR?" H 10200 3650 50  0001 C CNN
F 1 "VMOT" H 10200 3950 50  0000 C CNN
F 2 "" H 10200 3800 50  0001 C CNN
F 3 "" H 10200 3800 50  0001 C CNN
	1    10200 3800
	1    0    0    -1  
$EndComp
$Comp
L EXTboard:VMOT #PWR?
U 1 1 5B3ABE93
P 7100 1100
F 0 "#PWR?" H 7100 950 50  0001 C CNN
F 1 "VMOT" H 7100 1250 50  0000 C CNN
F 2 "" H 7100 1100 50  0001 C CNN
F 3 "" H 7100 1100 50  0001 C CNN
	1    7100 1100
	1    0    0    -1  
$EndComp
$Comp
L EXTboard:VMOT #PWR?
U 1 1 5B3ABEF0
P 5900 1100
F 0 "#PWR?" H 5900 950 50  0001 C CNN
F 1 "VMOT" H 5900 1250 50  0000 C CNN
F 2 "" H 5900 1100 50  0001 C CNN
F 3 "" H 5900 1100 50  0001 C CNN
	1    5900 1100
	1    0    0    -1  
$EndComp
$Comp
L EXTboard:VMOT #PWR?
U 1 1 5B3AD83A
P 2400 5400
F 0 "#PWR?" H 2400 5250 50  0001 C CNN
F 1 "VMOT" H 2400 5550 50  0000 C CNN
F 2 "" H 2400 5400 50  0001 C CNN
F 3 "" H 2400 5400 50  0001 C CNN
	1    2400 5400
	1    0    0    -1  
$EndComp
$Comp
L EXTboard:PWR_FLAG #FLG?
U 1 1 5B3AD840
P 2200 5600
F 0 "#FLG?" H 2200 5675 50  0001 C CNN
F 1 "PWR_FLAG" H 2200 5750 50  0000 C CNN
F 2 "" H 2200 5600 50  0001 C CNN
F 3 "" H 2200 5600 50  0001 C CNN
	1    2200 5600
	0    -1   -1   0   
$EndComp
Wire Wire Line
	2400 5400 2400 5600
Wire Wire Line
	2400 5600 2200 5600
Wire Wire Line
	4300 6300 4300 6500
Wire Wire Line
	7300 5100 7300 5300
Wire Wire Line
	10000 4100 10000 4200
Wire Wire Line
	10000 4200 10000 4300
Wire Wire Line
	10000 4300 10000 4400
Wire Wire Line
	10000 4400 10000 4500
Wire Wire Line
	10000 4500 10000 4600
Wire Wire Line
	9500 4800 9500 5000
Wire Wire Line
	9500 4700 9500 4800
Wire Wire Line
	9500 4600 9500 4700
Wire Wire Line
	9500 4500 9500 4600
Wire Wire Line
	9500 4400 9500 4500
Wire Wire Line
	9500 4300 9500 4400
Wire Wire Line
	9500 4200 9500 4300
Wire Wire Line
	10200 4800 10200 5000
Wire Wire Line
	9500 5000 9500 5300
Wire Wire Line
	8800 1600 9000 1600
Wire Wire Line
	8600 2100 8600 2300
Wire Wire Line
	10200 4700 10200 4800
Wire Wire Line
	1200 4100 1200 4500
Wire Wire Line
	1200 4100 1300 4100
Wire Wire Line
	1200 4600 1300 4600
Wire Wire Line
	1800 4000 1800 4100
Wire Wire Line
	7800 3800 7800 4000
Wire Wire Line
	7700 4000 7800 4000
Connection ~ 7800 4000
Wire Wire Line
	7800 4000 7800 5100
$Comp
L EXTboard:Logo_Open_Hardware_Small #LOGO1
U 1 1 5B5C1B68
P 10900 6875
F 0 "#LOGO1" H 10900 7150 50  0001 C CNN
F 1 "Logo_Open_Hardware_Small" H 10900 6650 50  0001 C CNN
F 2 "" H 10900 6875 50  0001 C CNN
F 3 "~" H 10900 6875 50  0001 C CNN
	1    10900 6875
	1    0    0    -1  
$EndComp
$Comp
L EXTboard:Mounting_Hole MK1
U 1 1 5B5D0380
P 900 6900
F 0 "MK1" H 1000 6946 50  0000 L CNN
F 1 "Mounting_Hole" H 1000 6855 50  0000 L CNN
F 2 "EXTboard:MountingHole_3.2mm_M3" H 900 6900 50  0001 C CNN
F 3 "" H 900 6900 50  0001 C CNN
	1    900  6900
	1    0    0    -1  
$EndComp
$Comp
L EXTboard:Mounting_Hole MK3
U 1 1 5B5D0598
P 1700 6900
F 0 "MK3" H 1800 6946 50  0000 L CNN
F 1 "Mounting_Hole" H 1800 6855 50  0000 L CNN
F 2 "EXTboard:MountingHole_3.2mm_M3" H 1700 6900 50  0001 C CNN
F 3 "" H 1700 6900 50  0001 C CNN
	1    1700 6900
	1    0    0    -1  
$EndComp
$Comp
L EXTboard:Mounting_Hole MK2
U 1 1 5B5D06B3
P 900 7300
F 0 "MK2" H 1000 7346 50  0000 L CNN
F 1 "Mounting_Hole" H 1000 7255 50  0000 L CNN
F 2 "EXTboard:MountingHole_3.2mm_M3" H 900 7300 50  0001 C CNN
F 3 "" H 900 7300 50  0001 C CNN
	1    900  7300
	1    0    0    -1  
$EndComp
$Comp
L EXTboard:Mounting_Hole MK4
U 1 1 5B5D06F3
P 1700 7300
F 0 "MK4" H 1800 7346 50  0000 L CNN
F 1 "Mounting_Hole" H 1800 7255 50  0000 L CNN
F 2 "EXTboard:MountingHole_3.2mm_M3" H 1700 7300 50  0001 C CNN
F 3 "" H 1700 7300 50  0001 C CNN
	1    1700 7300
	1    0    0    -1  
$EndComp
$Comp
L EXTboard:Logo_Escornabot_Small #LOGO2
U 1 1 5B53479D
P 10325 6850
F 0 "#LOGO2" H 10325 7100 60  0001 C CNN
F 1 "Logo_Escornabot_Small" H 10325 6600 60  0001 C CNN
F 2 "" H 10325 6850 60  0001 C CNN
F 3 "" H 10325 6850 60  0001 C CNN
	1    10325 6850
	1    0    0    -1  
$EndComp
$EndSCHEMATC
