ISO-10303-21;
HEADER;
FILE_DESCRIPTION(('FreeCAD Model'),'2;1');
FILE_NAME('/home/xoan/Buzzer_D9.0mm_P4.0mm.step','2018-03-28T20:38:02',(
    'kicad StepUp'),('ksu MCAD'),'Open CASCADE STEP processor 6.9',
  'FreeCAD','Unknown');
FILE_SCHEMA(('AUTOMOTIVE_DESIGN_CC2 { 1 2 10303 214 -1 1 5 4 }'));
ENDSEC;
DATA;
#1 = APPLICATION_PROTOCOL_DEFINITION('committee draft',
  'automotive_design',1997,#2);
#2 = APPLICATION_CONTEXT(
  'core data for automotive mechanical design processes');
#3 = SHAPE_DEFINITION_REPRESENTATION(#4,#10);
#4 = PRODUCT_DEFINITION_SHAPE('','',#5);
#5 = PRODUCT_DEFINITION('design','',#6,#9);
#6 = PRODUCT_DEFINITION_FORMATION('','',#7);
#7 = PRODUCT('Buzzer_D9.0mm_P4.0mm','Buzzer_D9.0mm_P4.0mm','',(#8));
#8 = MECHANICAL_CONTEXT('',#2,'mechanical');
#9 = PRODUCT_DEFINITION_CONTEXT('part definition',#2,'design');
#10 = ADVANCED_BREP_SHAPE_REPRESENTATION('',(#11,#15),#922);
#11 = AXIS2_PLACEMENT_3D('',#12,#13,#14);
#12 = CARTESIAN_POINT('',(0.,0.,0.));
#13 = DIRECTION('',(0.,0.,1.));
#14 = DIRECTION('',(1.,0.,-0.));
#15 = MANIFOLD_SOLID_BREP('',#16);
#16 = CLOSED_SHELL('',(#17,#127,#169,#211,#253,#295,#319,#343,#367,#400,
    #492,#595,#628,#660,#684,#698,#730,#747,#764,#776,#793,#810,#822,
    #834,#846,#863,#880,#892,#902,#912));
#17 = ADVANCED_FACE('',(#18),#122,.T.);
#18 = FACE_BOUND('',#19,.T.);
#19 = EDGE_LOOP('',(#20,#31,#39,#48,#56,#65,#73,#82,#90,#99,#107,#116));
#20 = ORIENTED_EDGE('',*,*,#21,.F.);
#21 = EDGE_CURVE('',#22,#24,#26,.T.);
#22 = VERTEX_POINT('',#23);
#23 = CARTESIAN_POINT('',(6.5,3.160115167485E-15,4.5));
#24 = VERTEX_POINT('',#25);
#25 = CARTESIAN_POINT('',(-2.5,-3.386180225107E-15,4.5));
#26 = CIRCLE('',#27,4.5);
#27 = AXIS2_PLACEMENT_3D('',#28,#29,#30);
#28 = CARTESIAN_POINT('',(2.,-3.885780586188E-16,4.5));
#29 = DIRECTION('',(1.110223024625E-16,1.110223024625E-16,1.));
#30 = DIRECTION('',(1.,6.661338147751E-16,-1.110223024625E-16));
#31 = ORIENTED_EDGE('',*,*,#32,.T.);
#32 = EDGE_CURVE('',#22,#33,#35,.T.);
#33 = VERTEX_POINT('',#34);
#34 = CARTESIAN_POINT('',(6.5,2.660514806404E-15,3.885780586188E-16));
#35 = LINE('',#36,#37);
#36 = CARTESIAN_POINT('',(6.5,3.160115167485E-15,4.5));
#37 = VECTOR('',#38,1.);
#38 = DIRECTION('',(-1.110223024625E-16,-1.110223024625E-16,-1.));
#39 = ORIENTED_EDGE('',*,*,#40,.T.);
#40 = EDGE_CURVE('',#33,#41,#43,.T.);
#41 = VERTEX_POINT('',#42);
#42 = CARTESIAN_POINT('',(6.145780987944,1.75,2.336152396038E-16));
#43 = CIRCLE('',#44,4.5);
#44 = AXIS2_PLACEMENT_3D('',#45,#46,#47);
#45 = CARTESIAN_POINT('',(2.,-8.881784197001E-16,8.881784197001E-16));
#46 = DIRECTION('',(1.110223024625E-16,1.110223024625E-16,1.));
#47 = DIRECTION('',(1.,6.661338147751E-16,-1.110223024625E-16));
#48 = ORIENTED_EDGE('',*,*,#49,.F.);
#49 = EDGE_CURVE('',#50,#41,#52,.T.);
#50 = VERTEX_POINT('',#51);
#51 = CARTESIAN_POINT('',(6.145780987944,1.75,0.5));
#52 = LINE('',#53,#54);
#53 = CARTESIAN_POINT('',(6.145780987944,1.75,0.5));
#54 = VECTOR('',#55,1.);
#55 = DIRECTION('',(-1.110223024625E-16,-1.110223024625E-16,-1.));
#56 = ORIENTED_EDGE('',*,*,#57,.F.);
#57 = EDGE_CURVE('',#58,#50,#60,.T.);
#58 = VERTEX_POINT('',#59);
#59 = CARTESIAN_POINT('',(3.75,4.145780987944,0.5));
#60 = CIRCLE('',#61,4.5);
#61 = AXIS2_PLACEMENT_3D('',#62,#63,#64);
#62 = CARTESIAN_POINT('',(2.,-8.326672684689E-16,0.5));
#63 = DIRECTION('',(-1.110223024625E-16,-1.110223024625E-16,-1.));
#64 = DIRECTION('',(-1.,-6.661338147751E-16,1.110223024625E-16));
#65 = ORIENTED_EDGE('',*,*,#66,.T.);
#66 = EDGE_CURVE('',#58,#67,#69,.T.);
#67 = VERTEX_POINT('',#68);
#68 = CARTESIAN_POINT('',(3.75,4.145780987944,2.336152396038E-16));
#69 = LINE('',#70,#71);
#70 = CARTESIAN_POINT('',(3.75,4.145780987944,0.5));
#71 = VECTOR('',#72,1.);
#72 = DIRECTION('',(-1.110223024625E-16,-1.110223024625E-16,-1.));
#73 = ORIENTED_EDGE('',*,*,#74,.T.);
#74 = EDGE_CURVE('',#67,#75,#77,.T.);
#75 = VERTEX_POINT('',#76);
#76 = CARTESIAN_POINT('',(0.25,4.145780987944,6.221932982226E-16));
#77 = CIRCLE('',#78,4.5);
#78 = AXIS2_PLACEMENT_3D('',#79,#80,#81);
#79 = CARTESIAN_POINT('',(2.,-8.881784197001E-16,8.881784197001E-16));
#80 = DIRECTION('',(1.110223024625E-16,1.110223024625E-16,1.));
#81 = DIRECTION('',(1.,6.661338147751E-16,-1.110223024625E-16));
#82 = ORIENTED_EDGE('',*,*,#83,.F.);
#83 = EDGE_CURVE('',#84,#75,#86,.T.);
#84 = VERTEX_POINT('',#85);
#85 = CARTESIAN_POINT('',(0.25,4.145780987944,0.5));
#86 = LINE('',#87,#88);
#87 = CARTESIAN_POINT('',(0.25,4.145780987944,0.5));
#88 = VECTOR('',#89,1.);
#89 = DIRECTION('',(-1.110223024625E-16,-1.110223024625E-16,-1.));
#90 = ORIENTED_EDGE('',*,*,#91,.F.);
#91 = EDGE_CURVE('',#92,#84,#94,.T.);
#92 = VERTEX_POINT('',#93);
#93 = CARTESIAN_POINT('',(-2.145780987944,1.75,0.5));
#94 = CIRCLE('',#95,4.5);
#95 = AXIS2_PLACEMENT_3D('',#96,#97,#98);
#96 = CARTESIAN_POINT('',(2.,-8.326672684689E-16,0.5));
#97 = DIRECTION('',(-1.110223024625E-16,-1.110223024625E-16,-1.));
#98 = DIRECTION('',(-1.,-6.661338147751E-16,1.110223024625E-16));
#99 = ORIENTED_EDGE('',*,*,#100,.T.);
#100 = EDGE_CURVE('',#92,#101,#103,.T.);
#101 = VERTEX_POINT('',#102);
#102 = CARTESIAN_POINT('',(-2.145780987944,1.75,1.154163541178E-15));
#103 = LINE('',#104,#105);
#104 = CARTESIAN_POINT('',(-2.145780987944,1.75,0.5));
#105 = VECTOR('',#106,1.);
#106 = DIRECTION('',(-1.110223024625E-16,-1.110223024625E-16,-1.));
#107 = ORIENTED_EDGE('',*,*,#108,.T.);
#108 = EDGE_CURVE('',#101,#109,#111,.T.);
#109 = VERTEX_POINT('',#110);
#110 = CARTESIAN_POINT('',(-2.5,-3.885780586188E-15,1.387778780781E-15)
  );
#111 = CIRCLE('',#112,4.5);
#112 = AXIS2_PLACEMENT_3D('',#113,#114,#115);
#113 = CARTESIAN_POINT('',(2.,-8.881784197001E-16,8.881784197001E-16));
#114 = DIRECTION('',(1.110223024625E-16,1.110223024625E-16,1.));
#115 = DIRECTION('',(1.,6.661338147751E-16,-1.110223024625E-16));
#116 = ORIENTED_EDGE('',*,*,#117,.F.);
#117 = EDGE_CURVE('',#24,#109,#118,.T.);
#118 = LINE('',#119,#120);
#119 = CARTESIAN_POINT('',(-2.5,-3.386180225107E-15,4.5));
#120 = VECTOR('',#121,1.);
#121 = DIRECTION('',(-1.110223024625E-16,-1.110223024625E-16,-1.));
#122 = CYLINDRICAL_SURFACE('',#123,4.5);
#123 = AXIS2_PLACEMENT_3D('',#124,#125,#126);
#124 = CARTESIAN_POINT('',(2.,-3.885780586188E-16,4.5));
#125 = DIRECTION('',(-1.110223024625E-16,-1.110223024625E-16,-1.));
#126 = DIRECTION('',(-1.,-6.661338147751E-16,1.110223024625E-16));
#127 = ADVANCED_FACE('',(#128),#164,.F.);
#128 = FACE_BOUND('',#129,.F.);
#129 = EDGE_LOOP('',(#130,#140,#149,#157));
#130 = ORIENTED_EDGE('',*,*,#131,.T.);
#131 = EDGE_CURVE('',#132,#134,#136,.T.);
#132 = VERTEX_POINT('',#133);
#133 = CARTESIAN_POINT('',(-1.68513865595,1.555555555556,0.5));
#134 = VERTEX_POINT('',#135);
#135 = CARTESIAN_POINT('',(-1.68513865595,1.555555555556,
    1.124609638791E-15));
#136 = LINE('',#137,#138);
#137 = CARTESIAN_POINT('',(-1.68513865595,1.555555555556,0.5));
#138 = VECTOR('',#139,1.);
#139 = DIRECTION('',(-1.110223024625E-16,-1.110223024625E-16,-1.));
#140 = ORIENTED_EDGE('',*,*,#141,.F.);
#141 = EDGE_CURVE('',#142,#134,#144,.T.);
#142 = VERTEX_POINT('',#143);
#143 = CARTESIAN_POINT('',(-2.,-3.552713678801E-15,1.33226762955E-15));
#144 = CIRCLE('',#145,4.);
#145 = AXIS2_PLACEMENT_3D('',#146,#147,#148);
#146 = CARTESIAN_POINT('',(2.,-8.881784197001E-16,8.881784197001E-16));
#147 = DIRECTION('',(-1.110223024625E-16,-1.110223024625E-16,-1.));
#148 = DIRECTION('',(-1.,-6.661338147751E-16,1.110223024625E-16));
#149 = ORIENTED_EDGE('',*,*,#150,.F.);
#150 = EDGE_CURVE('',#151,#142,#153,.T.);
#151 = VERTEX_POINT('',#152);
#152 = CARTESIAN_POINT('',(-2.,-3.497202527569E-15,0.5));
#153 = LINE('',#154,#155);
#154 = CARTESIAN_POINT('',(-2.,-3.497202527569E-15,0.5));
#155 = VECTOR('',#156,1.);
#156 = DIRECTION('',(-1.110223024625E-16,-1.110223024625E-16,-1.));
#157 = ORIENTED_EDGE('',*,*,#158,.T.);
#158 = EDGE_CURVE('',#151,#132,#159,.T.);
#159 = CIRCLE('',#160,4.);
#160 = AXIS2_PLACEMENT_3D('',#161,#162,#163);
#161 = CARTESIAN_POINT('',(2.,-8.326672684689E-16,0.5));
#162 = DIRECTION('',(-1.110223024625E-16,-1.110223024625E-16,-1.));
#163 = DIRECTION('',(-1.,-6.661338147751E-16,1.110223024625E-16));
#164 = CYLINDRICAL_SURFACE('',#165,4.);
#165 = AXIS2_PLACEMENT_3D('',#166,#167,#168);
#166 = CARTESIAN_POINT('',(2.,-8.326672684689E-16,0.5));
#167 = DIRECTION('',(-1.110223024625E-16,-1.110223024625E-16,-1.));
#168 = DIRECTION('',(-1.,-6.661338147751E-16,1.110223024625E-16));
#169 = ADVANCED_FACE('',(#170),#206,.F.);
#170 = FACE_BOUND('',#171,.F.);
#171 = EDGE_LOOP('',(#172,#182,#191,#199));
#172 = ORIENTED_EDGE('',*,*,#173,.T.);
#173 = EDGE_CURVE('',#174,#176,#178,.T.);
#174 = VERTEX_POINT('',#175);
#175 = CARTESIAN_POINT('',(2.8,-1.33226762955E-16,2.));
#176 = VERTEX_POINT('',#177);
#177 = CARTESIAN_POINT('',(2.8,1.443289932013E-16,4.5));
#178 = LINE('',#179,#180);
#179 = CARTESIAN_POINT('',(2.8,-1.33226762955E-16,2.));
#180 = VECTOR('',#181,1.);
#181 = DIRECTION('',(1.110223024625E-16,1.110223024625E-16,1.));
#182 = ORIENTED_EDGE('',*,*,#183,.F.);
#183 = EDGE_CURVE('',#184,#176,#186,.T.);
#184 = VERTEX_POINT('',#185);
#185 = CARTESIAN_POINT('',(1.2,-8.235133665071E-16,4.5));
#186 = CIRCLE('',#187,0.8);
#187 = AXIS2_PLACEMENT_3D('',#188,#189,#190);
#188 = CARTESIAN_POINT('',(2.,-3.885780586188E-16,4.5));
#189 = DIRECTION('',(1.110223024625E-16,1.110223024625E-16,1.));
#190 = DIRECTION('',(1.,6.661338147751E-16,-1.110223024625E-16));
#191 = ORIENTED_EDGE('',*,*,#192,.F.);
#192 = EDGE_CURVE('',#193,#184,#195,.T.);
#193 = VERTEX_POINT('',#194);
#194 = CARTESIAN_POINT('',(1.2,-1.101069122663E-15,2.));
#195 = LINE('',#196,#197);
#196 = CARTESIAN_POINT('',(1.2,-1.101069122663E-15,2.));
#197 = VECTOR('',#198,1.);
#198 = DIRECTION('',(1.110223024625E-16,1.110223024625E-16,1.));
#199 = ORIENTED_EDGE('',*,*,#200,.T.);
#200 = EDGE_CURVE('',#193,#174,#201,.T.);
#201 = CIRCLE('',#202,0.8);
#202 = AXIS2_PLACEMENT_3D('',#203,#204,#205);
#203 = CARTESIAN_POINT('',(2.,-6.661338147751E-16,2.));
#204 = DIRECTION('',(1.110223024625E-16,1.110223024625E-16,1.));
#205 = DIRECTION('',(1.,6.661338147751E-16,-1.110223024625E-16));
#206 = CYLINDRICAL_SURFACE('',#207,0.8);
#207 = AXIS2_PLACEMENT_3D('',#208,#209,#210);
#208 = CARTESIAN_POINT('',(2.,-6.661338147751E-16,2.));
#209 = DIRECTION('',(1.110223024625E-16,1.110223024625E-16,1.));
#210 = DIRECTION('',(1.,6.661338147751E-16,-1.110223024625E-16));
#211 = ADVANCED_FACE('',(#212),#248,.T.);
#212 = FACE_BOUND('',#213,.T.);
#213 = EDGE_LOOP('',(#214,#225,#233,#242));
#214 = ORIENTED_EDGE('',*,*,#215,.T.);
#215 = EDGE_CURVE('',#216,#218,#220,.T.);
#216 = VERTEX_POINT('',#217);
#217 = CARTESIAN_POINT('',(3.7,2.997602166475E-16,0.499999999988));
#218 = VERTEX_POINT('',#219);
#219 = CARTESIAN_POINT('',(4.3,7.36179909487E-16,0.499999999988));
#220 = CIRCLE('',#221,0.3);
#221 = AXIS2_PLACEMENT_3D('',#222,#223,#224);
#222 = CARTESIAN_POINT('',(4.,4.9960036108E-16,0.499999999988));
#223 = DIRECTION('',(-1.110223024625E-16,-1.110223024625E-16,-1.));
#224 = DIRECTION('',(-1.,-6.661338147751E-16,1.110223024625E-16));
#225 = ORIENTED_EDGE('',*,*,#226,.T.);
#226 = EDGE_CURVE('',#218,#227,#229,.T.);
#227 = VERTEX_POINT('',#228);
#228 = CARTESIAN_POINT('',(4.3,1.810683971757E-16,-4.5));
#229 = LINE('',#230,#231);
#230 = CARTESIAN_POINT('',(4.300000000056,5.551183190002E-11,5.E+05));
#231 = VECTOR('',#232,1.);
#232 = DIRECTION('',(-1.110223024625E-16,-1.110223024625E-16,-1.));
#233 = ORIENTED_EDGE('',*,*,#234,.T.);
#234 = EDGE_CURVE('',#227,#235,#237,.T.);
#235 = VERTEX_POINT('',#236);
#236 = CARTESIAN_POINT('',(3.7,-2.553512956638E-16,-4.5));
#237 = CIRCLE('',#238,0.3);
#238 = AXIS2_PLACEMENT_3D('',#239,#240,#241);
#239 = CARTESIAN_POINT('',(4.,-5.551115123126E-17,-4.5));
#240 = DIRECTION('',(1.110223024625E-16,1.110223024625E-16,1.));
#241 = DIRECTION('',(1.,6.661338147751E-16,-1.110223024625E-16));
#242 = ORIENTED_EDGE('',*,*,#243,.F.);
#243 = EDGE_CURVE('',#216,#235,#244,.T.);
#244 = LINE('',#245,#246);
#245 = CARTESIAN_POINT('',(3.700000000056,5.551139548032E-11,5.E+05));
#246 = VECTOR('',#247,1.);
#247 = DIRECTION('',(-1.110223024625E-16,-1.110223024625E-16,-1.));
#248 = CYLINDRICAL_SURFACE('',#249,0.3);
#249 = AXIS2_PLACEMENT_3D('',#250,#251,#252);
#250 = CARTESIAN_POINT('',(4.000000000056,5.551159532047E-11,5.E+05));
#251 = DIRECTION('',(-1.110223024625E-16,-1.110223024625E-16,-1.));
#252 = DIRECTION('',(-1.,-6.661338147751E-16,1.110223024625E-16));
#253 = ADVANCED_FACE('',(#254),#290,.T.);
#254 = FACE_BOUND('',#255,.T.);
#255 = EDGE_LOOP('',(#256,#267,#275,#284));
#256 = ORIENTED_EDGE('',*,*,#257,.T.);
#257 = EDGE_CURVE('',#258,#260,#262,.T.);
#258 = VERTEX_POINT('',#259);
#259 = CARTESIAN_POINT('',(-0.3,-2.364775042453E-15,0.499999999988));
#260 = VERTEX_POINT('',#261);
#261 = CARTESIAN_POINT('',(0.3,-1.928355349613E-15,0.499999999988));
#262 = CIRCLE('',#263,0.3);
#263 = AXIS2_PLACEMENT_3D('',#264,#265,#266);
#264 = CARTESIAN_POINT('',(0.,-2.16493489802E-15,0.499999999988));
#265 = DIRECTION('',(-1.110223024625E-16,-1.110223024625E-16,-1.));
#266 = DIRECTION('',(-1.,-6.661338147751E-16,1.110223024625E-16));
#267 = ORIENTED_EDGE('',*,*,#268,.T.);
#268 = EDGE_CURVE('',#260,#269,#271,.T.);
#269 = VERTEX_POINT('',#270);
#270 = CARTESIAN_POINT('',(0.3,-2.483466861925E-15,-4.5));
#271 = LINE('',#272,#273);
#272 = CARTESIAN_POINT('',(0.300000000056,5.550916736476E-11,5.E+05));
#273 = VECTOR('',#274,1.);
#274 = DIRECTION('',(-1.110223024625E-16,-1.110223024625E-16,-1.));
#275 = ORIENTED_EDGE('',*,*,#276,.T.);
#276 = EDGE_CURVE('',#269,#277,#279,.T.);
#277 = VERTEX_POINT('',#278);
#278 = CARTESIAN_POINT('',(-0.3,-2.919886554764E-15,-4.5));
#279 = CIRCLE('',#280,0.3);
#280 = AXIS2_PLACEMENT_3D('',#281,#282,#283);
#281 = CARTESIAN_POINT('',(-4.440892098501E-16,-2.720046410332E-15,-4.5)
  );
#282 = DIRECTION('',(1.110223024625E-16,1.110223024625E-16,1.));
#283 = DIRECTION('',(-1.,-6.661338147751E-16,1.110223024625E-16));
#284 = ORIENTED_EDGE('',*,*,#285,.F.);
#285 = EDGE_CURVE('',#258,#277,#286,.T.);
#286 = LINE('',#287,#288);
#287 = CARTESIAN_POINT('',(-0.299999999944,5.550873094506E-11,5.E+05));
#288 = VECTOR('',#289,1.);
#289 = DIRECTION('',(-1.110223024625E-16,-1.110223024625E-16,-1.));
#290 = CYLINDRICAL_SURFACE('',#291,0.3);
#291 = AXIS2_PLACEMENT_3D('',#292,#293,#294);
#292 = CARTESIAN_POINT('',(5.551115123126E-11,5.550893078521E-11,5.E+05)
  );
#293 = DIRECTION('',(-1.110223024625E-16,-1.110223024625E-16,-1.));
#294 = DIRECTION('',(-1.,-6.661338147751E-16,1.110223024625E-16));
#295 = ADVANCED_FACE('',(#296),#314,.T.);
#296 = FACE_BOUND('',#297,.T.);
#297 = EDGE_LOOP('',(#298,#299,#306,#307));
#298 = ORIENTED_EDGE('',*,*,#268,.F.);
#299 = ORIENTED_EDGE('',*,*,#300,.T.);
#300 = EDGE_CURVE('',#260,#258,#301,.T.);
#301 = CIRCLE('',#302,0.3);
#302 = AXIS2_PLACEMENT_3D('',#303,#304,#305);
#303 = CARTESIAN_POINT('',(0.,-2.16493489802E-15,0.499999999988));
#304 = DIRECTION('',(-1.110223024625E-16,-1.110223024625E-16,-1.));
#305 = DIRECTION('',(-1.,-6.661338147751E-16,1.110223024625E-16));
#306 = ORIENTED_EDGE('',*,*,#285,.T.);
#307 = ORIENTED_EDGE('',*,*,#308,.T.);
#308 = EDGE_CURVE('',#277,#269,#309,.T.);
#309 = CIRCLE('',#310,0.3);
#310 = AXIS2_PLACEMENT_3D('',#311,#312,#313);
#311 = CARTESIAN_POINT('',(-4.440892098501E-16,-2.720046410332E-15,-4.5)
  );
#312 = DIRECTION('',(1.110223024625E-16,1.110223024625E-16,1.));
#313 = DIRECTION('',(-1.,-6.661338147751E-16,1.110223024625E-16));
#314 = CYLINDRICAL_SURFACE('',#315,0.3);
#315 = AXIS2_PLACEMENT_3D('',#316,#317,#318);
#316 = CARTESIAN_POINT('',(5.551115123126E-11,5.550893078521E-11,5.E+05)
  );
#317 = DIRECTION('',(-1.110223024625E-16,-1.110223024625E-16,-1.));
#318 = DIRECTION('',(-1.,-6.661338147751E-16,1.110223024625E-16));
#319 = ADVANCED_FACE('',(#320),#338,.T.);
#320 = FACE_BOUND('',#321,.T.);
#321 = EDGE_LOOP('',(#322,#323,#330,#331));
#322 = ORIENTED_EDGE('',*,*,#226,.F.);
#323 = ORIENTED_EDGE('',*,*,#324,.T.);
#324 = EDGE_CURVE('',#218,#216,#325,.T.);
#325 = CIRCLE('',#326,0.3);
#326 = AXIS2_PLACEMENT_3D('',#327,#328,#329);
#327 = CARTESIAN_POINT('',(4.,4.9960036108E-16,0.499999999988));
#328 = DIRECTION('',(-1.110223024625E-16,-1.110223024625E-16,-1.));
#329 = DIRECTION('',(-1.,-6.661338147751E-16,1.110223024625E-16));
#330 = ORIENTED_EDGE('',*,*,#243,.T.);
#331 = ORIENTED_EDGE('',*,*,#332,.T.);
#332 = EDGE_CURVE('',#235,#227,#333,.T.);
#333 = CIRCLE('',#334,0.3);
#334 = AXIS2_PLACEMENT_3D('',#335,#336,#337);
#335 = CARTESIAN_POINT('',(4.,-5.551115123126E-17,-4.5));
#336 = DIRECTION('',(1.110223024625E-16,1.110223024625E-16,1.));
#337 = DIRECTION('',(1.,6.661338147751E-16,-1.110223024625E-16));
#338 = CYLINDRICAL_SURFACE('',#339,0.3);
#339 = AXIS2_PLACEMENT_3D('',#340,#341,#342);
#340 = CARTESIAN_POINT('',(4.000000000056,5.551159532047E-11,5.E+05));
#341 = DIRECTION('',(-1.110223024625E-16,-1.110223024625E-16,-1.));
#342 = DIRECTION('',(-1.,-6.661338147751E-16,1.110223024625E-16));
#343 = ADVANCED_FACE('',(#344),#362,.F.);
#344 = FACE_BOUND('',#345,.F.);
#345 = EDGE_LOOP('',(#346,#353,#354,#361));
#346 = ORIENTED_EDGE('',*,*,#347,.F.);
#347 = EDGE_CURVE('',#176,#184,#348,.T.);
#348 = CIRCLE('',#349,0.8);
#349 = AXIS2_PLACEMENT_3D('',#350,#351,#352);
#350 = CARTESIAN_POINT('',(2.,-3.885780586188E-16,4.5));
#351 = DIRECTION('',(1.110223024625E-16,1.110223024625E-16,1.));
#352 = DIRECTION('',(1.,6.661338147751E-16,-1.110223024625E-16));
#353 = ORIENTED_EDGE('',*,*,#173,.F.);
#354 = ORIENTED_EDGE('',*,*,#355,.T.);
#355 = EDGE_CURVE('',#174,#193,#356,.T.);
#356 = CIRCLE('',#357,0.8);
#357 = AXIS2_PLACEMENT_3D('',#358,#359,#360);
#358 = CARTESIAN_POINT('',(2.,-6.661338147751E-16,2.));
#359 = DIRECTION('',(1.110223024625E-16,1.110223024625E-16,1.));
#360 = DIRECTION('',(1.,6.661338147751E-16,-1.110223024625E-16));
#361 = ORIENTED_EDGE('',*,*,#192,.T.);
#362 = CYLINDRICAL_SURFACE('',#363,0.8);
#363 = AXIS2_PLACEMENT_3D('',#364,#365,#366);
#364 = CARTESIAN_POINT('',(2.,-6.661338147751E-16,2.));
#365 = DIRECTION('',(1.110223024625E-16,1.110223024625E-16,1.));
#366 = DIRECTION('',(1.,6.661338147751E-16,-1.110223024625E-16));
#367 = ADVANCED_FACE('',(#368),#395,.F.);
#368 = FACE_BOUND('',#369,.F.);
#369 = EDGE_LOOP('',(#370,#379,#387,#394));
#370 = ORIENTED_EDGE('',*,*,#371,.F.);
#371 = EDGE_CURVE('',#372,#142,#374,.T.);
#372 = VERTEX_POINT('',#373);
#373 = CARTESIAN_POINT('',(-1.68513865595,-1.555555555556,
    1.470012357564E-15));
#374 = CIRCLE('',#375,4.);
#375 = AXIS2_PLACEMENT_3D('',#376,#377,#378);
#376 = CARTESIAN_POINT('',(2.,-8.881784197001E-16,8.881784197001E-16));
#377 = DIRECTION('',(-1.110223024625E-16,-1.110223024625E-16,-1.));
#378 = DIRECTION('',(-1.,-6.661338147751E-16,1.110223024625E-16));
#379 = ORIENTED_EDGE('',*,*,#380,.F.);
#380 = EDGE_CURVE('',#381,#372,#383,.T.);
#381 = VERTEX_POINT('',#382);
#382 = CARTESIAN_POINT('',(-1.68513865595,-1.555555555556,0.5));
#383 = LINE('',#384,#385);
#384 = CARTESIAN_POINT('',(-1.68513865595,-1.555555555556,0.5));
#385 = VECTOR('',#386,1.);
#386 = DIRECTION('',(-1.110223024625E-16,-1.110223024625E-16,-1.));
#387 = ORIENTED_EDGE('',*,*,#388,.T.);
#388 = EDGE_CURVE('',#381,#151,#389,.T.);
#389 = CIRCLE('',#390,4.);
#390 = AXIS2_PLACEMENT_3D('',#391,#392,#393);
#391 = CARTESIAN_POINT('',(2.,-8.326672684689E-16,0.5));
#392 = DIRECTION('',(-1.110223024625E-16,-1.110223024625E-16,-1.));
#393 = DIRECTION('',(-1.,-6.661338147751E-16,1.110223024625E-16));
#394 = ORIENTED_EDGE('',*,*,#150,.T.);
#395 = CYLINDRICAL_SURFACE('',#396,4.);
#396 = AXIS2_PLACEMENT_3D('',#397,#398,#399);
#397 = CARTESIAN_POINT('',(2.,-8.326672684689E-16,0.5));
#398 = DIRECTION('',(-1.110223024625E-16,-1.110223024625E-16,-1.));
#399 = DIRECTION('',(-1.,-6.661338147751E-16,1.110223024625E-16));
#400 = ADVANCED_FACE('',(#401),#487,.T.);
#401 = FACE_BOUND('',#402,.T.);
#402 = EDGE_LOOP('',(#403,#404,#411,#412,#421,#429,#438,#446,#455,#463,
    #472,#480));
#403 = ORIENTED_EDGE('',*,*,#32,.F.);
#404 = ORIENTED_EDGE('',*,*,#405,.F.);
#405 = EDGE_CURVE('',#24,#22,#406,.T.);
#406 = CIRCLE('',#407,4.5);
#407 = AXIS2_PLACEMENT_3D('',#408,#409,#410);
#408 = CARTESIAN_POINT('',(2.,-3.885780586188E-16,4.5));
#409 = DIRECTION('',(1.110223024625E-16,1.110223024625E-16,1.));
#410 = DIRECTION('',(1.,6.661338147751E-16,-1.110223024625E-16));
#411 = ORIENTED_EDGE('',*,*,#117,.T.);
#412 = ORIENTED_EDGE('',*,*,#413,.T.);
#413 = EDGE_CURVE('',#109,#414,#416,.T.);
#414 = VERTEX_POINT('',#415);
#415 = CARTESIAN_POINT('',(-2.145780987944,-1.75,1.542741599796E-15));
#416 = CIRCLE('',#417,4.5);
#417 = AXIS2_PLACEMENT_3D('',#418,#419,#420);
#418 = CARTESIAN_POINT('',(2.,-8.881784197001E-16,8.881784197001E-16));
#419 = DIRECTION('',(1.110223024625E-16,1.110223024625E-16,1.));
#420 = DIRECTION('',(1.,6.661338147751E-16,-1.110223024625E-16));
#421 = ORIENTED_EDGE('',*,*,#422,.F.);
#422 = EDGE_CURVE('',#423,#414,#425,.T.);
#423 = VERTEX_POINT('',#424);
#424 = CARTESIAN_POINT('',(-2.145780987944,-1.75,0.5));
#425 = LINE('',#426,#427);
#426 = CARTESIAN_POINT('',(-2.145780987944,-1.75,0.5));
#427 = VECTOR('',#428,1.);
#428 = DIRECTION('',(-1.110223024625E-16,-1.110223024625E-16,-1.));
#429 = ORIENTED_EDGE('',*,*,#430,.F.);
#430 = EDGE_CURVE('',#431,#423,#433,.T.);
#431 = VERTEX_POINT('',#432);
#432 = CARTESIAN_POINT('',(0.25,-4.145780987944,0.5));
#433 = CIRCLE('',#434,4.5);
#434 = AXIS2_PLACEMENT_3D('',#435,#436,#437);
#435 = CARTESIAN_POINT('',(2.,-8.326672684689E-16,0.5));
#436 = DIRECTION('',(-1.110223024625E-16,-1.110223024625E-16,-1.));
#437 = DIRECTION('',(-1.,-6.661338147751E-16,1.110223024625E-16));
#438 = ORIENTED_EDGE('',*,*,#439,.T.);
#439 = EDGE_CURVE('',#431,#440,#442,.T.);
#440 = VERTEX_POINT('',#441);
#441 = CARTESIAN_POINT('',(0.25,-4.145780987944,1.542741599796E-15));
#442 = LINE('',#443,#444);
#443 = CARTESIAN_POINT('',(0.25,-4.145780987944,0.5));
#444 = VECTOR('',#445,1.);
#445 = DIRECTION('',(-1.110223024625E-16,-1.110223024625E-16,-1.));
#446 = ORIENTED_EDGE('',*,*,#447,.T.);
#447 = EDGE_CURVE('',#440,#448,#450,.T.);
#448 = VERTEX_POINT('',#449);
#449 = CARTESIAN_POINT('',(3.75,-4.145780987944,1.154163541178E-15));
#450 = CIRCLE('',#451,4.5);
#451 = AXIS2_PLACEMENT_3D('',#452,#453,#454);
#452 = CARTESIAN_POINT('',(2.,-8.881784197001E-16,8.881784197001E-16));
#453 = DIRECTION('',(1.110223024625E-16,1.110223024625E-16,1.));
#454 = DIRECTION('',(1.,6.661338147751E-16,-1.110223024625E-16));
#455 = ORIENTED_EDGE('',*,*,#456,.F.);
#456 = EDGE_CURVE('',#457,#448,#459,.T.);
#457 = VERTEX_POINT('',#458);
#458 = CARTESIAN_POINT('',(3.75,-4.145780987944,0.5));
#459 = LINE('',#460,#461);
#460 = CARTESIAN_POINT('',(3.75,-4.145780987944,0.5));
#461 = VECTOR('',#462,1.);
#462 = DIRECTION('',(-1.110223024625E-16,-1.110223024625E-16,-1.));
#463 = ORIENTED_EDGE('',*,*,#464,.F.);
#464 = EDGE_CURVE('',#465,#457,#467,.T.);
#465 = VERTEX_POINT('',#466);
#466 = CARTESIAN_POINT('',(6.145780987944,-1.75,0.5));
#467 = CIRCLE('',#468,4.5);
#468 = AXIS2_PLACEMENT_3D('',#469,#470,#471);
#469 = CARTESIAN_POINT('',(2.,-8.326672684689E-16,0.5));
#470 = DIRECTION('',(-1.110223024625E-16,-1.110223024625E-16,-1.));
#471 = DIRECTION('',(-1.,-6.661338147751E-16,1.110223024625E-16));
#472 = ORIENTED_EDGE('',*,*,#473,.T.);
#473 = EDGE_CURVE('',#465,#474,#476,.T.);
#474 = VERTEX_POINT('',#475);
#475 = CARTESIAN_POINT('',(6.145780987944,-1.75,6.221932982226E-16));
#476 = LINE('',#477,#478);
#477 = CARTESIAN_POINT('',(6.145780987944,-1.75,0.5));
#478 = VECTOR('',#479,1.);
#479 = DIRECTION('',(-1.110223024625E-16,-1.110223024625E-16,-1.));
#480 = ORIENTED_EDGE('',*,*,#481,.T.);
#481 = EDGE_CURVE('',#474,#33,#482,.T.);
#482 = CIRCLE('',#483,4.5);
#483 = AXIS2_PLACEMENT_3D('',#484,#485,#486);
#484 = CARTESIAN_POINT('',(2.,-8.881784197001E-16,8.881784197001E-16));
#485 = DIRECTION('',(1.110223024625E-16,1.110223024625E-16,1.));
#486 = DIRECTION('',(1.,6.661338147751E-16,-1.110223024625E-16));
#487 = CYLINDRICAL_SURFACE('',#488,4.5);
#488 = AXIS2_PLACEMENT_3D('',#489,#490,#491);
#489 = CARTESIAN_POINT('',(2.,-3.885780586188E-16,4.5));
#490 = DIRECTION('',(-1.110223024625E-16,-1.110223024625E-16,-1.));
#491 = DIRECTION('',(-1.,-6.661338147751E-16,1.110223024625E-16));
#492 = ADVANCED_FACE('',(#493,#497,#586),#590,.T.);
#493 = FACE_BOUND('',#494,.T.);
#494 = EDGE_LOOP('',(#495,#496));
#495 = ORIENTED_EDGE('',*,*,#215,.F.);
#496 = ORIENTED_EDGE('',*,*,#324,.F.);
#497 = FACE_BOUND('',#498,.T.);
#498 = EDGE_LOOP('',(#499,#500,#508,#517,#523,#524,#530,#531,#532,#538,
    #539,#547,#556,#562,#563,#571,#580));
#499 = ORIENTED_EDGE('',*,*,#464,.T.);
#500 = ORIENTED_EDGE('',*,*,#501,.T.);
#501 = EDGE_CURVE('',#457,#502,#504,.T.);
#502 = VERTEX_POINT('',#503);
#503 = CARTESIAN_POINT('',(3.555555555556,-3.68513865595,0.5));
#504 = LINE('',#505,#506);
#505 = CARTESIAN_POINT('',(3.555555555556,-3.68513865595,0.5));
#506 = VECTOR('',#507,1.);
#507 = DIRECTION('',(-0.388888888889,0.921284663988,-5.910780477275E-17)
  );
#508 = ORIENTED_EDGE('',*,*,#509,.T.);
#509 = EDGE_CURVE('',#502,#510,#512,.T.);
#510 = VERTEX_POINT('',#511);
#511 = CARTESIAN_POINT('',(0.444444444444,-3.68513865595,0.5));
#512 = CIRCLE('',#513,4.);
#513 = AXIS2_PLACEMENT_3D('',#514,#515,#516);
#514 = CARTESIAN_POINT('',(2.,-8.326672684689E-16,0.5));
#515 = DIRECTION('',(-1.110223024625E-16,-1.110223024625E-16,-1.));
#516 = DIRECTION('',(-1.,-6.661338147751E-16,1.110223024625E-16));
#517 = ORIENTED_EDGE('',*,*,#518,.T.);
#518 = EDGE_CURVE('',#510,#431,#519,.T.);
#519 = LINE('',#520,#521);
#520 = CARTESIAN_POINT('',(0.444444444444,-3.68513865595,0.5));
#521 = VECTOR('',#522,1.);
#522 = DIRECTION('',(-0.388888888889,-0.921284663988,1.454584844657E-16)
  );
#523 = ORIENTED_EDGE('',*,*,#430,.T.);
#524 = ORIENTED_EDGE('',*,*,#525,.T.);
#525 = EDGE_CURVE('',#423,#381,#526,.T.);
#526 = LINE('',#527,#528);
#527 = CARTESIAN_POINT('',(-1.68513865595,-1.555555555556,0.5));
#528 = VECTOR('',#529,1.);
#529 = DIRECTION('',(0.921284663988,0.388888888889,-1.454584844657E-16)
  );
#530 = ORIENTED_EDGE('',*,*,#388,.T.);
#531 = ORIENTED_EDGE('',*,*,#158,.T.);
#532 = ORIENTED_EDGE('',*,*,#533,.T.);
#533 = EDGE_CURVE('',#132,#92,#534,.T.);
#534 = LINE('',#535,#536);
#535 = CARTESIAN_POINT('',(-1.68513865595,1.555555555556,0.5));
#536 = VECTOR('',#537,1.);
#537 = DIRECTION('',(-0.921284663988,0.388888888889,5.910780477276E-17)
  );
#538 = ORIENTED_EDGE('',*,*,#91,.T.);
#539 = ORIENTED_EDGE('',*,*,#540,.T.);
#540 = EDGE_CURVE('',#84,#541,#543,.T.);
#541 = VERTEX_POINT('',#542);
#542 = CARTESIAN_POINT('',(0.444444444444,3.68513865595,0.5));
#543 = LINE('',#544,#545);
#544 = CARTESIAN_POINT('',(0.444444444444,3.68513865595,0.5));
#545 = VECTOR('',#546,1.);
#546 = DIRECTION('',(0.388888888889,-0.921284663988,5.910780477276E-17)
  );
#547 = ORIENTED_EDGE('',*,*,#548,.T.);
#548 = EDGE_CURVE('',#541,#549,#551,.T.);
#549 = VERTEX_POINT('',#550);
#550 = CARTESIAN_POINT('',(3.555555555556,3.68513865595,0.5));
#551 = CIRCLE('',#552,4.);
#552 = AXIS2_PLACEMENT_3D('',#553,#554,#555);
#553 = CARTESIAN_POINT('',(2.,-8.326672684689E-16,0.5));
#554 = DIRECTION('',(-1.110223024625E-16,-1.110223024625E-16,-1.));
#555 = DIRECTION('',(-1.,-6.661338147751E-16,1.110223024625E-16));
#556 = ORIENTED_EDGE('',*,*,#557,.T.);
#557 = EDGE_CURVE('',#549,#58,#558,.T.);
#558 = LINE('',#559,#560);
#559 = CARTESIAN_POINT('',(3.555555555556,3.68513865595,0.5));
#560 = VECTOR('',#561,1.);
#561 = DIRECTION('',(0.388888888889,0.921284663988,-1.454584844657E-16)
  );
#562 = ORIENTED_EDGE('',*,*,#57,.T.);
#563 = ORIENTED_EDGE('',*,*,#564,.T.);
#564 = EDGE_CURVE('',#50,#565,#567,.T.);
#565 = VERTEX_POINT('',#566);
#566 = CARTESIAN_POINT('',(5.68513865595,1.555555555556,0.5));
#567 = LINE('',#568,#569);
#568 = CARTESIAN_POINT('',(5.68513865595,1.555555555556,0.5));
#569 = VECTOR('',#570,1.);
#570 = DIRECTION('',(-0.921284663988,-0.388888888889,1.454584844657E-16)
  );
#571 = ORIENTED_EDGE('',*,*,#572,.T.);
#572 = EDGE_CURVE('',#565,#573,#575,.T.);
#573 = VERTEX_POINT('',#574);
#574 = CARTESIAN_POINT('',(5.68513865595,-1.555555555556,0.5));
#575 = CIRCLE('',#576,4.);
#576 = AXIS2_PLACEMENT_3D('',#577,#578,#579);
#577 = CARTESIAN_POINT('',(2.,-8.326672684689E-16,0.5));
#578 = DIRECTION('',(-1.110223024625E-16,-1.110223024625E-16,-1.));
#579 = DIRECTION('',(-1.,-6.661338147751E-16,1.110223024625E-16));
#580 = ORIENTED_EDGE('',*,*,#581,.T.);
#581 = EDGE_CURVE('',#573,#465,#582,.T.);
#582 = LINE('',#583,#584);
#583 = CARTESIAN_POINT('',(5.68513865595,-1.555555555556,0.5));
#584 = VECTOR('',#585,1.);
#585 = DIRECTION('',(0.921284663988,-0.388888888889,-5.910780477276E-17)
  );
#586 = FACE_BOUND('',#587,.T.);
#587 = EDGE_LOOP('',(#588,#589));
#588 = ORIENTED_EDGE('',*,*,#257,.F.);
#589 = ORIENTED_EDGE('',*,*,#300,.F.);
#590 = PLANE('',#591);
#591 = AXIS2_PLACEMENT_3D('',#592,#593,#594);
#592 = CARTESIAN_POINT('',(2.,-8.326672684689E-16,0.5));
#593 = DIRECTION('',(-1.110223024625E-16,-1.110223024625E-16,-1.));
#594 = DIRECTION('',(-1.,-6.661338147751E-16,1.110223024625E-16));
#595 = ADVANCED_FACE('',(#596),#623,.F.);
#596 = FACE_BOUND('',#597,.T.);
#597 = EDGE_LOOP('',(#598,#599,#607,#616,#622));
#598 = ORIENTED_EDGE('',*,*,#481,.F.);
#599 = ORIENTED_EDGE('',*,*,#600,.F.);
#600 = EDGE_CURVE('',#601,#474,#603,.T.);
#601 = VERTEX_POINT('',#602);
#602 = CARTESIAN_POINT('',(5.68513865595,-1.555555555556,
    6.51747200609E-16));
#603 = LINE('',#604,#605);
#604 = CARTESIAN_POINT('',(5.68513865595,-1.555555555556,
    6.51747200609E-16));
#605 = VECTOR('',#606,1.);
#606 = DIRECTION('',(0.921284663988,-0.388888888889,-5.910780477276E-17)
  );
#607 = ORIENTED_EDGE('',*,*,#608,.F.);
#608 = EDGE_CURVE('',#609,#601,#611,.T.);
#609 = VERTEX_POINT('',#610);
#610 = CARTESIAN_POINT('',(5.68513865595,1.555555555556,
    3.063444818367E-16));
#611 = CIRCLE('',#612,4.);
#612 = AXIS2_PLACEMENT_3D('',#613,#614,#615);
#613 = CARTESIAN_POINT('',(2.,-8.881784197001E-16,8.881784197001E-16));
#614 = DIRECTION('',(-1.110223024625E-16,-1.110223024625E-16,-1.));
#615 = DIRECTION('',(-1.,-6.661338147751E-16,1.110223024625E-16));
#616 = ORIENTED_EDGE('',*,*,#617,.F.);
#617 = EDGE_CURVE('',#41,#609,#618,.T.);
#618 = LINE('',#619,#620);
#619 = CARTESIAN_POINT('',(5.68513865595,1.555555555556,
    3.063444818367E-16));
#620 = VECTOR('',#621,1.);
#621 = DIRECTION('',(-0.921284663988,-0.388888888889,1.454584844657E-16)
  );
#622 = ORIENTED_EDGE('',*,*,#40,.F.);
#623 = PLANE('',#624);
#624 = AXIS2_PLACEMENT_3D('',#625,#626,#627);
#625 = CARTESIAN_POINT('',(2.,-8.881784197001E-16,8.881784197001E-16));
#626 = DIRECTION('',(1.110223024625E-16,1.110223024625E-16,1.));
#627 = DIRECTION('',(1.,6.661338147751E-16,-1.110223024625E-16));
#628 = ADVANCED_FACE('',(#629),#655,.F.);
#629 = FACE_BOUND('',#630,.T.);
#630 = EDGE_LOOP('',(#631,#632,#640,#649));
#631 = ORIENTED_EDGE('',*,*,#74,.F.);
#632 = ORIENTED_EDGE('',*,*,#633,.F.);
#633 = EDGE_CURVE('',#634,#67,#636,.T.);
#634 = VERTEX_POINT('',#635);
#635 = CARTESIAN_POINT('',(3.555555555556,3.68513865595,
    3.063444818368E-16));
#636 = LINE('',#637,#638);
#637 = CARTESIAN_POINT('',(3.555555555556,3.68513865595,
    3.063444818368E-16));
#638 = VECTOR('',#639,1.);
#639 = DIRECTION('',(0.388888888889,0.921284663988,-1.454584844657E-16)
  );
#640 = ORIENTED_EDGE('',*,*,#641,.F.);
#641 = EDGE_CURVE('',#642,#634,#644,.T.);
#642 = VERTEX_POINT('',#643);
#643 = CARTESIAN_POINT('',(0.444444444444,3.68513865595,
    6.51747200609E-16));
#644 = CIRCLE('',#645,4.);
#645 = AXIS2_PLACEMENT_3D('',#646,#647,#648);
#646 = CARTESIAN_POINT('',(2.,-8.881784197001E-16,8.881784197001E-16));
#647 = DIRECTION('',(-1.110223024625E-16,-1.110223024625E-16,-1.));
#648 = DIRECTION('',(-1.,-6.661338147751E-16,1.110223024625E-16));
#649 = ORIENTED_EDGE('',*,*,#650,.F.);
#650 = EDGE_CURVE('',#75,#642,#651,.T.);
#651 = LINE('',#652,#653);
#652 = CARTESIAN_POINT('',(0.444444444444,3.68513865595,
    6.51747200609E-16));
#653 = VECTOR('',#654,1.);
#654 = DIRECTION('',(0.388888888889,-0.921284663988,5.910780477276E-17)
  );
#655 = PLANE('',#656);
#656 = AXIS2_PLACEMENT_3D('',#657,#658,#659);
#657 = CARTESIAN_POINT('',(2.,-8.881784197001E-16,8.881784197001E-16));
#658 = DIRECTION('',(1.110223024625E-16,1.110223024625E-16,1.));
#659 = DIRECTION('',(1.,6.661338147751E-16,-1.110223024625E-16));
#660 = ADVANCED_FACE('',(#661),#679,.F.);
#661 = FACE_BOUND('',#662,.T.);
#662 = EDGE_LOOP('',(#663,#664,#670,#671,#672,#678));
#663 = ORIENTED_EDGE('',*,*,#108,.F.);
#664 = ORIENTED_EDGE('',*,*,#665,.F.);
#665 = EDGE_CURVE('',#134,#101,#666,.T.);
#666 = LINE('',#667,#668);
#667 = CARTESIAN_POINT('',(-1.68513865595,1.555555555556,
    1.124609638791E-15));
#668 = VECTOR('',#669,1.);
#669 = DIRECTION('',(-0.921284663988,0.388888888889,5.910780477276E-17)
  );
#670 = ORIENTED_EDGE('',*,*,#141,.F.);
#671 = ORIENTED_EDGE('',*,*,#371,.F.);
#672 = ORIENTED_EDGE('',*,*,#673,.F.);
#673 = EDGE_CURVE('',#414,#372,#674,.T.);
#674 = LINE('',#675,#676);
#675 = CARTESIAN_POINT('',(-1.68513865595,-1.555555555556,
    1.470012357564E-15));
#676 = VECTOR('',#677,1.);
#677 = DIRECTION('',(0.921284663988,0.388888888889,-1.454584844657E-16)
  );
#678 = ORIENTED_EDGE('',*,*,#413,.F.);
#679 = PLANE('',#680);
#680 = AXIS2_PLACEMENT_3D('',#681,#682,#683);
#681 = CARTESIAN_POINT('',(2.,-8.881784197001E-16,8.881784197001E-16));
#682 = DIRECTION('',(1.110223024625E-16,1.110223024625E-16,1.));
#683 = DIRECTION('',(1.,6.661338147751E-16,-1.110223024625E-16));
#684 = ADVANCED_FACE('',(#685,#689),#693,.T.);
#685 = FACE_BOUND('',#686,.T.);
#686 = EDGE_LOOP('',(#687,#688));
#687 = ORIENTED_EDGE('',*,*,#347,.F.);
#688 = ORIENTED_EDGE('',*,*,#183,.F.);
#689 = FACE_BOUND('',#690,.T.);
#690 = EDGE_LOOP('',(#691,#692));
#691 = ORIENTED_EDGE('',*,*,#405,.T.);
#692 = ORIENTED_EDGE('',*,*,#21,.T.);
#693 = PLANE('',#694);
#694 = AXIS2_PLACEMENT_3D('',#695,#696,#697);
#695 = CARTESIAN_POINT('',(2.,-3.885780586188E-16,4.5));
#696 = DIRECTION('',(1.110223024625E-16,1.110223024625E-16,1.));
#697 = DIRECTION('',(1.,6.661338147751E-16,-1.110223024625E-16));
#698 = ADVANCED_FACE('',(#699),#725,.F.);
#699 = FACE_BOUND('',#700,.T.);
#700 = EDGE_LOOP('',(#701,#702,#710,#719));
#701 = ORIENTED_EDGE('',*,*,#447,.F.);
#702 = ORIENTED_EDGE('',*,*,#703,.F.);
#703 = EDGE_CURVE('',#704,#440,#706,.T.);
#704 = VERTEX_POINT('',#705);
#705 = CARTESIAN_POINT('',(0.444444444444,-3.68513865595,
    1.470012357563E-15));
#706 = LINE('',#707,#708);
#707 = CARTESIAN_POINT('',(0.444444444444,-3.68513865595,
    1.470012357563E-15));
#708 = VECTOR('',#709,1.);
#709 = DIRECTION('',(-0.388888888889,-0.921284663988,1.454584844657E-16)
  );
#710 = ORIENTED_EDGE('',*,*,#711,.F.);
#711 = EDGE_CURVE('',#712,#704,#714,.T.);
#712 = VERTEX_POINT('',#713);
#713 = CARTESIAN_POINT('',(3.555555555556,-3.68513865595,
    1.124609638791E-15));
#714 = CIRCLE('',#715,4.);
#715 = AXIS2_PLACEMENT_3D('',#716,#717,#718);
#716 = CARTESIAN_POINT('',(2.,-8.881784197001E-16,8.881784197001E-16));
#717 = DIRECTION('',(-1.110223024625E-16,-1.110223024625E-16,-1.));
#718 = DIRECTION('',(-1.,-6.661338147751E-16,1.110223024625E-16));
#719 = ORIENTED_EDGE('',*,*,#720,.F.);
#720 = EDGE_CURVE('',#448,#712,#721,.T.);
#721 = LINE('',#722,#723);
#722 = CARTESIAN_POINT('',(3.555555555556,-3.68513865595,
    1.124609638791E-15));
#723 = VECTOR('',#724,1.);
#724 = DIRECTION('',(-0.388888888889,0.921284663988,-5.910780477275E-17)
  );
#725 = PLANE('',#726);
#726 = AXIS2_PLACEMENT_3D('',#727,#728,#729);
#727 = CARTESIAN_POINT('',(2.,-8.881784197001E-16,8.881784197001E-16));
#728 = DIRECTION('',(1.110223024625E-16,1.110223024625E-16,1.));
#729 = DIRECTION('',(1.,6.661338147751E-16,-1.110223024625E-16));
#730 = ADVANCED_FACE('',(#731),#742,.F.);
#731 = FACE_BOUND('',#732,.T.);
#732 = EDGE_LOOP('',(#733,#734,#735,#736));
#733 = ORIENTED_EDGE('',*,*,#600,.T.);
#734 = ORIENTED_EDGE('',*,*,#473,.F.);
#735 = ORIENTED_EDGE('',*,*,#581,.F.);
#736 = ORIENTED_EDGE('',*,*,#737,.T.);
#737 = EDGE_CURVE('',#573,#601,#738,.T.);
#738 = LINE('',#739,#740);
#739 = CARTESIAN_POINT('',(5.68513865595,-1.555555555556,0.5));
#740 = VECTOR('',#741,1.);
#741 = DIRECTION('',(-1.110223024625E-16,-1.110223024625E-16,-1.));
#742 = PLANE('',#743);
#743 = AXIS2_PLACEMENT_3D('',#744,#745,#746);
#744 = CARTESIAN_POINT('',(5.68513865595,-1.555555555556,0.5));
#745 = DIRECTION('',(0.388888888889,0.921284663988,-1.454584844657E-16)
  );
#746 = DIRECTION('',(-0.921284663988,0.388888888889,5.910780477276E-17)
  );
#747 = ADVANCED_FACE('',(#748),#759,.F.);
#748 = FACE_BOUND('',#749,.F.);
#749 = EDGE_LOOP('',(#750,#756,#757,#758));
#750 = ORIENTED_EDGE('',*,*,#751,.F.);
#751 = EDGE_CURVE('',#565,#609,#752,.T.);
#752 = LINE('',#753,#754);
#753 = CARTESIAN_POINT('',(5.68513865595,1.555555555556,0.5));
#754 = VECTOR('',#755,1.);
#755 = DIRECTION('',(-1.110223024625E-16,-1.110223024625E-16,-1.));
#756 = ORIENTED_EDGE('',*,*,#572,.T.);
#757 = ORIENTED_EDGE('',*,*,#737,.T.);
#758 = ORIENTED_EDGE('',*,*,#608,.F.);
#759 = CYLINDRICAL_SURFACE('',#760,4.);
#760 = AXIS2_PLACEMENT_3D('',#761,#762,#763);
#761 = CARTESIAN_POINT('',(2.,-8.326672684689E-16,0.5));
#762 = DIRECTION('',(-1.110223024625E-16,-1.110223024625E-16,-1.));
#763 = DIRECTION('',(-1.,-6.661338147751E-16,1.110223024625E-16));
#764 = ADVANCED_FACE('',(#765),#771,.F.);
#765 = FACE_BOUND('',#766,.T.);
#766 = EDGE_LOOP('',(#767,#768,#769,#770));
#767 = ORIENTED_EDGE('',*,*,#617,.T.);
#768 = ORIENTED_EDGE('',*,*,#751,.F.);
#769 = ORIENTED_EDGE('',*,*,#564,.F.);
#770 = ORIENTED_EDGE('',*,*,#49,.T.);
#771 = PLANE('',#772);
#772 = AXIS2_PLACEMENT_3D('',#773,#774,#775);
#773 = CARTESIAN_POINT('',(5.68513865595,1.555555555556,0.5));
#774 = DIRECTION('',(0.388888888889,-0.921284663988,5.910780477277E-17)
  );
#775 = DIRECTION('',(0.921284663988,0.388888888889,-1.454584844657E-16)
  );
#776 = ADVANCED_FACE('',(#777),#788,.F.);
#777 = FACE_BOUND('',#778,.T.);
#778 = EDGE_LOOP('',(#779,#780,#781,#782));
#779 = ORIENTED_EDGE('',*,*,#633,.T.);
#780 = ORIENTED_EDGE('',*,*,#66,.F.);
#781 = ORIENTED_EDGE('',*,*,#557,.F.);
#782 = ORIENTED_EDGE('',*,*,#783,.T.);
#783 = EDGE_CURVE('',#549,#634,#784,.T.);
#784 = LINE('',#785,#786);
#785 = CARTESIAN_POINT('',(3.555555555556,3.68513865595,0.5));
#786 = VECTOR('',#787,1.);
#787 = DIRECTION('',(-1.110223024625E-16,-1.110223024625E-16,-1.));
#788 = PLANE('',#789);
#789 = AXIS2_PLACEMENT_3D('',#790,#791,#792);
#790 = CARTESIAN_POINT('',(3.555555555556,3.68513865595,0.5));
#791 = DIRECTION('',(-0.921284663988,0.388888888889,5.910780477276E-17)
  );
#792 = DIRECTION('',(-0.388888888889,-0.921284663988,1.454584844657E-16)
  );
#793 = ADVANCED_FACE('',(#794),#805,.F.);
#794 = FACE_BOUND('',#795,.F.);
#795 = EDGE_LOOP('',(#796,#802,#803,#804));
#796 = ORIENTED_EDGE('',*,*,#797,.F.);
#797 = EDGE_CURVE('',#541,#642,#798,.T.);
#798 = LINE('',#799,#800);
#799 = CARTESIAN_POINT('',(0.444444444444,3.68513865595,0.5));
#800 = VECTOR('',#801,1.);
#801 = DIRECTION('',(-1.110223024625E-16,-1.110223024625E-16,-1.));
#802 = ORIENTED_EDGE('',*,*,#548,.T.);
#803 = ORIENTED_EDGE('',*,*,#783,.T.);
#804 = ORIENTED_EDGE('',*,*,#641,.F.);
#805 = CYLINDRICAL_SURFACE('',#806,4.);
#806 = AXIS2_PLACEMENT_3D('',#807,#808,#809);
#807 = CARTESIAN_POINT('',(2.,-8.326672684689E-16,0.5));
#808 = DIRECTION('',(-1.110223024625E-16,-1.110223024625E-16,-1.));
#809 = DIRECTION('',(-1.,-6.661338147751E-16,1.110223024625E-16));
#810 = ADVANCED_FACE('',(#811),#817,.F.);
#811 = FACE_BOUND('',#812,.T.);
#812 = EDGE_LOOP('',(#813,#814,#815,#816));
#813 = ORIENTED_EDGE('',*,*,#650,.T.);
#814 = ORIENTED_EDGE('',*,*,#797,.F.);
#815 = ORIENTED_EDGE('',*,*,#540,.F.);
#816 = ORIENTED_EDGE('',*,*,#83,.T.);
#817 = PLANE('',#818);
#818 = AXIS2_PLACEMENT_3D('',#819,#820,#821);
#819 = CARTESIAN_POINT('',(0.444444444444,3.68513865595,0.5));
#820 = DIRECTION('',(0.921284663988,0.388888888889,-1.454584844657E-16)
  );
#821 = DIRECTION('',(-0.388888888889,0.921284663988,-5.910780477276E-17)
  );
#822 = ADVANCED_FACE('',(#823),#829,.F.);
#823 = FACE_BOUND('',#824,.T.);
#824 = EDGE_LOOP('',(#825,#826,#827,#828));
#825 = ORIENTED_EDGE('',*,*,#665,.T.);
#826 = ORIENTED_EDGE('',*,*,#100,.F.);
#827 = ORIENTED_EDGE('',*,*,#533,.F.);
#828 = ORIENTED_EDGE('',*,*,#131,.T.);
#829 = PLANE('',#830);
#830 = AXIS2_PLACEMENT_3D('',#831,#832,#833);
#831 = CARTESIAN_POINT('',(-1.68513865595,1.555555555556,0.5));
#832 = DIRECTION('',(-0.388888888889,-0.921284663988,1.454584844657E-16)
  );
#833 = DIRECTION('',(0.921284663988,-0.388888888889,-5.910780477276E-17)
  );
#834 = ADVANCED_FACE('',(#835),#841,.F.);
#835 = FACE_BOUND('',#836,.T.);
#836 = EDGE_LOOP('',(#837,#838,#839,#840));
#837 = ORIENTED_EDGE('',*,*,#673,.T.);
#838 = ORIENTED_EDGE('',*,*,#380,.F.);
#839 = ORIENTED_EDGE('',*,*,#525,.F.);
#840 = ORIENTED_EDGE('',*,*,#422,.T.);
#841 = PLANE('',#842);
#842 = AXIS2_PLACEMENT_3D('',#843,#844,#845);
#843 = CARTESIAN_POINT('',(-1.68513865595,-1.555555555556,0.5));
#844 = DIRECTION('',(-0.388888888889,0.921284663988,-5.910780477275E-17)
  );
#845 = DIRECTION('',(-0.921284663988,-0.388888888889,1.454584844657E-16)
  );
#846 = ADVANCED_FACE('',(#847),#858,.F.);
#847 = FACE_BOUND('',#848,.T.);
#848 = EDGE_LOOP('',(#849,#850,#851,#852));
#849 = ORIENTED_EDGE('',*,*,#703,.T.);
#850 = ORIENTED_EDGE('',*,*,#439,.F.);
#851 = ORIENTED_EDGE('',*,*,#518,.F.);
#852 = ORIENTED_EDGE('',*,*,#853,.T.);
#853 = EDGE_CURVE('',#510,#704,#854,.T.);
#854 = LINE('',#855,#856);
#855 = CARTESIAN_POINT('',(0.444444444444,-3.68513865595,0.5));
#856 = VECTOR('',#857,1.);
#857 = DIRECTION('',(-1.110223024625E-16,-1.110223024625E-16,-1.));
#858 = PLANE('',#859);
#859 = AXIS2_PLACEMENT_3D('',#860,#861,#862);
#860 = CARTESIAN_POINT('',(0.444444444444,-3.68513865595,0.5));
#861 = DIRECTION('',(0.921284663988,-0.388888888889,-5.910780477276E-17)
  );
#862 = DIRECTION('',(0.388888888889,0.921284663988,-1.454584844657E-16)
  );
#863 = ADVANCED_FACE('',(#864),#875,.F.);
#864 = FACE_BOUND('',#865,.F.);
#865 = EDGE_LOOP('',(#866,#872,#873,#874));
#866 = ORIENTED_EDGE('',*,*,#867,.F.);
#867 = EDGE_CURVE('',#502,#712,#868,.T.);
#868 = LINE('',#869,#870);
#869 = CARTESIAN_POINT('',(3.555555555556,-3.68513865595,0.5));
#870 = VECTOR('',#871,1.);
#871 = DIRECTION('',(-1.110223024625E-16,-1.110223024625E-16,-1.));
#872 = ORIENTED_EDGE('',*,*,#509,.T.);
#873 = ORIENTED_EDGE('',*,*,#853,.T.);
#874 = ORIENTED_EDGE('',*,*,#711,.F.);
#875 = CYLINDRICAL_SURFACE('',#876,4.);
#876 = AXIS2_PLACEMENT_3D('',#877,#878,#879);
#877 = CARTESIAN_POINT('',(2.,-8.326672684689E-16,0.5));
#878 = DIRECTION('',(-1.110223024625E-16,-1.110223024625E-16,-1.));
#879 = DIRECTION('',(-1.,-6.661338147751E-16,1.110223024625E-16));
#880 = ADVANCED_FACE('',(#881),#887,.F.);
#881 = FACE_BOUND('',#882,.T.);
#882 = EDGE_LOOP('',(#883,#884,#885,#886));
#883 = ORIENTED_EDGE('',*,*,#720,.T.);
#884 = ORIENTED_EDGE('',*,*,#867,.F.);
#885 = ORIENTED_EDGE('',*,*,#501,.F.);
#886 = ORIENTED_EDGE('',*,*,#456,.T.);
#887 = PLANE('',#888);
#888 = AXIS2_PLACEMENT_3D('',#889,#890,#891);
#889 = CARTESIAN_POINT('',(3.555555555556,-3.68513865595,0.5));
#890 = DIRECTION('',(-0.921284663988,-0.388888888889,1.454584844657E-16)
  );
#891 = DIRECTION('',(0.388888888889,-0.921284663988,5.910780477275E-17)
  );
#892 = ADVANCED_FACE('',(#893),#897,.T.);
#893 = FACE_BOUND('',#894,.T.);
#894 = EDGE_LOOP('',(#895,#896));
#895 = ORIENTED_EDGE('',*,*,#355,.T.);
#896 = ORIENTED_EDGE('',*,*,#200,.T.);
#897 = PLANE('',#898);
#898 = AXIS2_PLACEMENT_3D('',#899,#900,#901);
#899 = CARTESIAN_POINT('',(2.,-6.661338147751E-16,2.));
#900 = DIRECTION('',(1.110223024625E-16,1.110223024625E-16,1.));
#901 = DIRECTION('',(1.,6.661338147751E-16,-1.110223024625E-16));
#902 = ADVANCED_FACE('',(#903),#907,.F.);
#903 = FACE_BOUND('',#904,.T.);
#904 = EDGE_LOOP('',(#905,#906));
#905 = ORIENTED_EDGE('',*,*,#332,.F.);
#906 = ORIENTED_EDGE('',*,*,#234,.F.);
#907 = PLANE('',#908);
#908 = AXIS2_PLACEMENT_3D('',#909,#910,#911);
#909 = CARTESIAN_POINT('',(4.,-5.551115123126E-17,-4.5));
#910 = DIRECTION('',(1.110223024625E-16,1.110223024625E-16,1.));
#911 = DIRECTION('',(1.,6.661338147751E-16,-1.110223024625E-16));
#912 = ADVANCED_FACE('',(#913),#917,.T.);
#913 = FACE_BOUND('',#914,.T.);
#914 = EDGE_LOOP('',(#915,#916));
#915 = ORIENTED_EDGE('',*,*,#308,.F.);
#916 = ORIENTED_EDGE('',*,*,#276,.F.);
#917 = PLANE('',#918);
#918 = AXIS2_PLACEMENT_3D('',#919,#920,#921);
#919 = CARTESIAN_POINT('',(-4.440892098501E-16,-2.720046410332E-15,-4.5)
  );
#920 = DIRECTION('',(-1.110223024625E-16,-1.110223024625E-16,-1.));
#921 = DIRECTION('',(-1.,-6.661338147751E-16,1.110223024625E-16));
#922 = ( GEOMETRIC_REPRESENTATION_CONTEXT(3) 
GLOBAL_UNCERTAINTY_ASSIGNED_CONTEXT((#926)) GLOBAL_UNIT_ASSIGNED_CONTEXT
((#923,#924,#925)) REPRESENTATION_CONTEXT('Context #1',
  '3D Context with UNIT and UNCERTAINTY') );
#923 = ( LENGTH_UNIT() NAMED_UNIT(*) SI_UNIT(.MILLI.,.METRE.) );
#924 = ( NAMED_UNIT(*) PLANE_ANGLE_UNIT() SI_UNIT($,.RADIAN.) );
#925 = ( NAMED_UNIT(*) SI_UNIT($,.STERADIAN.) SOLID_ANGLE_UNIT() );
#926 = UNCERTAINTY_MEASURE_WITH_UNIT(LENGTH_MEASURE(1.E-07),#923,
  'distance_accuracy_value','confusion accuracy');
#927 = PRODUCT_TYPE('part',$,(#7));
#928 = MECHANICAL_DESIGN_GEOMETRIC_PRESENTATION_REPRESENTATION('',(#929,
    #937,#944,#951,#959,#966,#973,#980,#987,#994,#1001,#1008,#1015,#1022
    ,#1029,#1036,#1043,#1050,#1057,#1064,#1071,#1078,#1085,#1092,#1099,
    #1106,#1113,#1120,#1128,#1135),#922);
#929 = STYLED_ITEM('color',(#930),#17);
#930 = PRESENTATION_STYLE_ASSIGNMENT((#931));
#931 = SURFACE_STYLE_USAGE(.BOTH.,#932);
#932 = SURFACE_SIDE_STYLE('',(#933));
#933 = SURFACE_STYLE_FILL_AREA(#934);
#934 = FILL_AREA_STYLE('',(#935));
#935 = FILL_AREA_STYLE_COLOUR('',#936);
#936 = COLOUR_RGB('',0.148000001907,0.144999995828,0.144999995828);
#937 = STYLED_ITEM('color',(#938),#127);
#938 = PRESENTATION_STYLE_ASSIGNMENT((#939));
#939 = SURFACE_STYLE_USAGE(.BOTH.,#940);
#940 = SURFACE_SIDE_STYLE('',(#941));
#941 = SURFACE_STYLE_FILL_AREA(#942);
#942 = FILL_AREA_STYLE('',(#943));
#943 = FILL_AREA_STYLE_COLOUR('',#936);
#944 = STYLED_ITEM('color',(#945),#169);
#945 = PRESENTATION_STYLE_ASSIGNMENT((#946));
#946 = SURFACE_STYLE_USAGE(.BOTH.,#947);
#947 = SURFACE_SIDE_STYLE('',(#948));
#948 = SURFACE_STYLE_FILL_AREA(#949);
#949 = FILL_AREA_STYLE('',(#950));
#950 = FILL_AREA_STYLE_COLOUR('',#936);
#951 = STYLED_ITEM('color',(#952),#211);
#952 = PRESENTATION_STYLE_ASSIGNMENT((#953));
#953 = SURFACE_STYLE_USAGE(.BOTH.,#954);
#954 = SURFACE_SIDE_STYLE('',(#955));
#955 = SURFACE_STYLE_FILL_AREA(#956);
#956 = FILL_AREA_STYLE('',(#957));
#957 = FILL_AREA_STYLE_COLOUR('',#958);
#958 = COLOUR_RGB('',0.85900002718,0.737999975681,0.495999991894);
#959 = STYLED_ITEM('color',(#960),#253);
#960 = PRESENTATION_STYLE_ASSIGNMENT((#961));
#961 = SURFACE_STYLE_USAGE(.BOTH.,#962);
#962 = SURFACE_SIDE_STYLE('',(#963));
#963 = SURFACE_STYLE_FILL_AREA(#964);
#964 = FILL_AREA_STYLE('',(#965));
#965 = FILL_AREA_STYLE_COLOUR('',#958);
#966 = STYLED_ITEM('color',(#967),#295);
#967 = PRESENTATION_STYLE_ASSIGNMENT((#968));
#968 = SURFACE_STYLE_USAGE(.BOTH.,#969);
#969 = SURFACE_SIDE_STYLE('',(#970));
#970 = SURFACE_STYLE_FILL_AREA(#971);
#971 = FILL_AREA_STYLE('',(#972));
#972 = FILL_AREA_STYLE_COLOUR('',#958);
#973 = STYLED_ITEM('color',(#974),#319);
#974 = PRESENTATION_STYLE_ASSIGNMENT((#975));
#975 = SURFACE_STYLE_USAGE(.BOTH.,#976);
#976 = SURFACE_SIDE_STYLE('',(#977));
#977 = SURFACE_STYLE_FILL_AREA(#978);
#978 = FILL_AREA_STYLE('',(#979));
#979 = FILL_AREA_STYLE_COLOUR('',#958);
#980 = STYLED_ITEM('color',(#981),#343);
#981 = PRESENTATION_STYLE_ASSIGNMENT((#982));
#982 = SURFACE_STYLE_USAGE(.BOTH.,#983);
#983 = SURFACE_SIDE_STYLE('',(#984));
#984 = SURFACE_STYLE_FILL_AREA(#985);
#985 = FILL_AREA_STYLE('',(#986));
#986 = FILL_AREA_STYLE_COLOUR('',#936);
#987 = STYLED_ITEM('color',(#988),#367);
#988 = PRESENTATION_STYLE_ASSIGNMENT((#989));
#989 = SURFACE_STYLE_USAGE(.BOTH.,#990);
#990 = SURFACE_SIDE_STYLE('',(#991));
#991 = SURFACE_STYLE_FILL_AREA(#992);
#992 = FILL_AREA_STYLE('',(#993));
#993 = FILL_AREA_STYLE_COLOUR('',#936);
#994 = STYLED_ITEM('color',(#995),#400);
#995 = PRESENTATION_STYLE_ASSIGNMENT((#996));
#996 = SURFACE_STYLE_USAGE(.BOTH.,#997);
#997 = SURFACE_SIDE_STYLE('',(#998));
#998 = SURFACE_STYLE_FILL_AREA(#999);
#999 = FILL_AREA_STYLE('',(#1000));
#1000 = FILL_AREA_STYLE_COLOUR('',#936);
#1001 = STYLED_ITEM('color',(#1002),#492);
#1002 = PRESENTATION_STYLE_ASSIGNMENT((#1003));
#1003 = SURFACE_STYLE_USAGE(.BOTH.,#1004);
#1004 = SURFACE_SIDE_STYLE('',(#1005));
#1005 = SURFACE_STYLE_FILL_AREA(#1006);
#1006 = FILL_AREA_STYLE('',(#1007));
#1007 = FILL_AREA_STYLE_COLOUR('',#936);
#1008 = STYLED_ITEM('color',(#1009),#595);
#1009 = PRESENTATION_STYLE_ASSIGNMENT((#1010));
#1010 = SURFACE_STYLE_USAGE(.BOTH.,#1011);
#1011 = SURFACE_SIDE_STYLE('',(#1012));
#1012 = SURFACE_STYLE_FILL_AREA(#1013);
#1013 = FILL_AREA_STYLE('',(#1014));
#1014 = FILL_AREA_STYLE_COLOUR('',#936);
#1015 = STYLED_ITEM('color',(#1016),#628);
#1016 = PRESENTATION_STYLE_ASSIGNMENT((#1017));
#1017 = SURFACE_STYLE_USAGE(.BOTH.,#1018);
#1018 = SURFACE_SIDE_STYLE('',(#1019));
#1019 = SURFACE_STYLE_FILL_AREA(#1020);
#1020 = FILL_AREA_STYLE('',(#1021));
#1021 = FILL_AREA_STYLE_COLOUR('',#936);
#1022 = STYLED_ITEM('color',(#1023),#660);
#1023 = PRESENTATION_STYLE_ASSIGNMENT((#1024));
#1024 = SURFACE_STYLE_USAGE(.BOTH.,#1025);
#1025 = SURFACE_SIDE_STYLE('',(#1026));
#1026 = SURFACE_STYLE_FILL_AREA(#1027);
#1027 = FILL_AREA_STYLE('',(#1028));
#1028 = FILL_AREA_STYLE_COLOUR('',#936);
#1029 = STYLED_ITEM('color',(#1030),#684);
#1030 = PRESENTATION_STYLE_ASSIGNMENT((#1031));
#1031 = SURFACE_STYLE_USAGE(.BOTH.,#1032);
#1032 = SURFACE_SIDE_STYLE('',(#1033));
#1033 = SURFACE_STYLE_FILL_AREA(#1034);
#1034 = FILL_AREA_STYLE('',(#1035));
#1035 = FILL_AREA_STYLE_COLOUR('',#936);
#1036 = STYLED_ITEM('color',(#1037),#698);
#1037 = PRESENTATION_STYLE_ASSIGNMENT((#1038));
#1038 = SURFACE_STYLE_USAGE(.BOTH.,#1039);
#1039 = SURFACE_SIDE_STYLE('',(#1040));
#1040 = SURFACE_STYLE_FILL_AREA(#1041);
#1041 = FILL_AREA_STYLE('',(#1042));
#1042 = FILL_AREA_STYLE_COLOUR('',#936);
#1043 = STYLED_ITEM('color',(#1044),#730);
#1044 = PRESENTATION_STYLE_ASSIGNMENT((#1045));
#1045 = SURFACE_STYLE_USAGE(.BOTH.,#1046);
#1046 = SURFACE_SIDE_STYLE('',(#1047));
#1047 = SURFACE_STYLE_FILL_AREA(#1048);
#1048 = FILL_AREA_STYLE('',(#1049));
#1049 = FILL_AREA_STYLE_COLOUR('',#936);
#1050 = STYLED_ITEM('color',(#1051),#747);
#1051 = PRESENTATION_STYLE_ASSIGNMENT((#1052));
#1052 = SURFACE_STYLE_USAGE(.BOTH.,#1053);
#1053 = SURFACE_SIDE_STYLE('',(#1054));
#1054 = SURFACE_STYLE_FILL_AREA(#1055);
#1055 = FILL_AREA_STYLE('',(#1056));
#1056 = FILL_AREA_STYLE_COLOUR('',#936);
#1057 = STYLED_ITEM('color',(#1058),#764);
#1058 = PRESENTATION_STYLE_ASSIGNMENT((#1059));
#1059 = SURFACE_STYLE_USAGE(.BOTH.,#1060);
#1060 = SURFACE_SIDE_STYLE('',(#1061));
#1061 = SURFACE_STYLE_FILL_AREA(#1062);
#1062 = FILL_AREA_STYLE('',(#1063));
#1063 = FILL_AREA_STYLE_COLOUR('',#936);
#1064 = STYLED_ITEM('color',(#1065),#776);
#1065 = PRESENTATION_STYLE_ASSIGNMENT((#1066));
#1066 = SURFACE_STYLE_USAGE(.BOTH.,#1067);
#1067 = SURFACE_SIDE_STYLE('',(#1068));
#1068 = SURFACE_STYLE_FILL_AREA(#1069);
#1069 = FILL_AREA_STYLE('',(#1070));
#1070 = FILL_AREA_STYLE_COLOUR('',#936);
#1071 = STYLED_ITEM('color',(#1072),#793);
#1072 = PRESENTATION_STYLE_ASSIGNMENT((#1073));
#1073 = SURFACE_STYLE_USAGE(.BOTH.,#1074);
#1074 = SURFACE_SIDE_STYLE('',(#1075));
#1075 = SURFACE_STYLE_FILL_AREA(#1076);
#1076 = FILL_AREA_STYLE('',(#1077));
#1077 = FILL_AREA_STYLE_COLOUR('',#936);
#1078 = STYLED_ITEM('color',(#1079),#810);
#1079 = PRESENTATION_STYLE_ASSIGNMENT((#1080));
#1080 = SURFACE_STYLE_USAGE(.BOTH.,#1081);
#1081 = SURFACE_SIDE_STYLE('',(#1082));
#1082 = SURFACE_STYLE_FILL_AREA(#1083);
#1083 = FILL_AREA_STYLE('',(#1084));
#1084 = FILL_AREA_STYLE_COLOUR('',#936);
#1085 = STYLED_ITEM('color',(#1086),#822);
#1086 = PRESENTATION_STYLE_ASSIGNMENT((#1087));
#1087 = SURFACE_STYLE_USAGE(.BOTH.,#1088);
#1088 = SURFACE_SIDE_STYLE('',(#1089));
#1089 = SURFACE_STYLE_FILL_AREA(#1090);
#1090 = FILL_AREA_STYLE('',(#1091));
#1091 = FILL_AREA_STYLE_COLOUR('',#936);
#1092 = STYLED_ITEM('color',(#1093),#834);
#1093 = PRESENTATION_STYLE_ASSIGNMENT((#1094));
#1094 = SURFACE_STYLE_USAGE(.BOTH.,#1095);
#1095 = SURFACE_SIDE_STYLE('',(#1096));
#1096 = SURFACE_STYLE_FILL_AREA(#1097);
#1097 = FILL_AREA_STYLE('',(#1098));
#1098 = FILL_AREA_STYLE_COLOUR('',#936);
#1099 = STYLED_ITEM('color',(#1100),#846);
#1100 = PRESENTATION_STYLE_ASSIGNMENT((#1101));
#1101 = SURFACE_STYLE_USAGE(.BOTH.,#1102);
#1102 = SURFACE_SIDE_STYLE('',(#1103));
#1103 = SURFACE_STYLE_FILL_AREA(#1104);
#1104 = FILL_AREA_STYLE('',(#1105));
#1105 = FILL_AREA_STYLE_COLOUR('',#936);
#1106 = STYLED_ITEM('color',(#1107),#863);
#1107 = PRESENTATION_STYLE_ASSIGNMENT((#1108));
#1108 = SURFACE_STYLE_USAGE(.BOTH.,#1109);
#1109 = SURFACE_SIDE_STYLE('',(#1110));
#1110 = SURFACE_STYLE_FILL_AREA(#1111);
#1111 = FILL_AREA_STYLE('',(#1112));
#1112 = FILL_AREA_STYLE_COLOUR('',#936);
#1113 = STYLED_ITEM('color',(#1114),#880);
#1114 = PRESENTATION_STYLE_ASSIGNMENT((#1115));
#1115 = SURFACE_STYLE_USAGE(.BOTH.,#1116);
#1116 = SURFACE_SIDE_STYLE('',(#1117));
#1117 = SURFACE_STYLE_FILL_AREA(#1118);
#1118 = FILL_AREA_STYLE('',(#1119));
#1119 = FILL_AREA_STYLE_COLOUR('',#936);
#1120 = STYLED_ITEM('color',(#1121),#892);
#1121 = PRESENTATION_STYLE_ASSIGNMENT((#1122));
#1122 = SURFACE_STYLE_USAGE(.BOTH.,#1123);
#1123 = SURFACE_SIDE_STYLE('',(#1124));
#1124 = SURFACE_STYLE_FILL_AREA(#1125);
#1125 = FILL_AREA_STYLE('',(#1126));
#1126 = FILL_AREA_STYLE_COLOUR('',#1127);
#1127 = COLOUR_RGB('',0.824000000954,0.819999992847,0.78100001812);
#1128 = STYLED_ITEM('color',(#1129),#902);
#1129 = PRESENTATION_STYLE_ASSIGNMENT((#1130));
#1130 = SURFACE_STYLE_USAGE(.BOTH.,#1131);
#1131 = SURFACE_SIDE_STYLE('',(#1132));
#1132 = SURFACE_STYLE_FILL_AREA(#1133);
#1133 = FILL_AREA_STYLE('',(#1134));
#1134 = FILL_AREA_STYLE_COLOUR('',#958);
#1135 = STYLED_ITEM('color',(#1136),#912);
#1136 = PRESENTATION_STYLE_ASSIGNMENT((#1137));
#1137 = SURFACE_STYLE_USAGE(.BOTH.,#1138);
#1138 = SURFACE_SIDE_STYLE('',(#1139));
#1139 = SURFACE_STYLE_FILL_AREA(#1140);
#1140 = FILL_AREA_STYLE('',(#1141));
#1141 = FILL_AREA_STYLE_COLOUR('',#958);
ENDSEC;
END-ISO-10303-21;
