(module EXT_Symbols:Escornabot-Logo_CopperTop_Big (layer F.Cu) (tedit 5AB5433B)
  (descr "Escornabot Logo")
  (tags "Escornabot Logo")
  (zone_connect 1)
  (fp_text reference G*** (at 0 -5.08) (layer F.SilkS) hide
    (effects (font (size 1 1) (thickness 0.15)))
  )
  (fp_text value Escornabot-Logo_CopperTop_Big (at 0 5.08) (layer F.SilkS) hide
    (effects (font (size 1 1) (thickness 0.15)))
  )
  (fp_poly (pts (xy -0.3701 3.251247) (xy -0.32485 3.276787) (xy -0.281125 3.318687) (xy -0.251356 3.371449)
    (xy -0.235944 3.430793) (xy -0.235289 3.492443) (xy -0.249793 3.552121) (xy -0.279856 3.60555)
    (xy -0.292639 3.62043) (xy -0.341396 3.659089) (xy -0.398775 3.684259) (xy -0.459362 3.694515)
    (xy -0.517745 3.688431) (xy -0.532813 3.683661) (xy -0.595623 3.650926) (xy -0.643436 3.605621)
    (xy -0.674982 3.549364) (xy -0.688935 3.484582) (xy -0.686163 3.416451) (xy -0.666375 3.358029)
    (xy -0.628418 3.306327) (xy -0.61521 3.293412) (xy -0.55905 3.254191) (xy -0.497843 3.233996)
    (xy -0.434043 3.232968) (xy -0.3701 3.251247)) (layer F.Cu) (width 0.01))
  (fp_poly (pts (xy 0.803786 3.244993) (xy 0.855458 3.271549) (xy 0.899229 3.310525) (xy 0.932155 3.360574)
    (xy 0.951292 3.420351) (xy 0.954944 3.462524) (xy 0.949662 3.522264) (xy 0.931839 3.571321)
    (xy 0.89881 3.616769) (xy 0.89546 3.62043) (xy 0.848656 3.657994) (xy 0.792264 3.683292)
    (xy 0.732533 3.69437) (xy 0.675711 3.68927) (xy 0.67564 3.689252) (xy 0.610943 3.662943)
    (xy 0.559234 3.622254) (xy 0.522253 3.569409) (xy 0.501742 3.506634) (xy 0.498063 3.462346)
    (xy 0.507554 3.395583) (xy 0.535677 3.336633) (xy 0.576956 3.289846) (xy 0.630797 3.253281)
    (xy 0.688511 3.234514) (xy 0.747156 3.232199) (xy 0.803786 3.244993)) (layer F.Cu) (width 0.01))
  (fp_poly (pts (xy 1.385917 -3.630319) (xy 1.483864 -3.62734) (xy 1.568471 -3.622329) (xy 1.60528 -3.618945)
    (xy 1.884842 -3.579797) (xy 2.153929 -3.523259) (xy 2.412614 -3.449305) (xy 2.660971 -3.357914)
    (xy 2.899075 -3.24906) (xy 3.106714 -3.134918) (xy 3.160581 -3.102972) (xy 3.199327 -3.079483)
    (xy 3.224891 -3.061869) (xy 3.239216 -3.047553) (xy 3.244241 -3.033955) (xy 3.241907 -3.018496)
    (xy 3.234156 -2.998597) (xy 3.225227 -2.977426) (xy 3.163212 -2.842307) (xy 3.086512 -2.704239)
    (xy 2.998677 -2.569236) (xy 2.928534 -2.474762) (xy 2.89228 -2.431711) (xy 2.84398 -2.378755)
    (xy 2.787004 -2.319223) (xy 2.724723 -2.256445) (xy 2.660508 -2.193751) (xy 2.59773 -2.134473)
    (xy 2.539759 -2.081939) (xy 2.489968 -2.03948) (xy 2.47904 -2.030709) (xy 2.306526 -1.901918)
    (xy 2.119254 -1.776461) (xy 1.916827 -1.654186) (xy 1.698852 -1.534944) (xy 1.464933 -1.418582)
    (xy 1.214676 -1.30495) (xy 0.947685 -1.193897) (xy 0.663566 -1.085271) (xy 0.361924 -0.978922)
    (xy 0.042364 -0.874698) (xy -0.295509 -0.772449) (xy -0.65209 -0.672024) (xy -1.027773 -0.573271)
    (xy -1.422954 -0.47604) (xy -1.83388 -0.381108) (xy -1.912073 -0.363492) (xy -1.985885 -0.346689)
    (xy -2.052418 -0.331372) (xy -2.108773 -0.318215) (xy -2.152053 -0.307891) (xy -2.179358 -0.301072)
    (xy -2.1844 -0.299697) (xy -2.23012 -0.286596) (xy -2.162329 -0.285538) (xy -2.132915 -0.28462)
    (xy -2.087009 -0.282613) (xy -2.028398 -0.279712) (xy -1.96087 -0.276107) (xy -1.888211 -0.271993)
    (xy -1.842289 -0.269272) (xy -1.429194 -0.240967) (xy -1.035186 -0.206954) (xy -0.659815 -0.167112)
    (xy -0.302631 -0.121322) (xy 0.036816 -0.069463) (xy 0.358976 -0.011417) (xy 0.664299 0.052938)
    (xy 0.953234 0.12372) (xy 1.226231 0.201051) (xy 1.48374 0.285049) (xy 1.726211 0.375835)
    (xy 1.954093 0.473529) (xy 2.167837 0.57825) (xy 2.367893 0.690118) (xy 2.554709 0.809254)
    (xy 2.728737 0.935776) (xy 2.754607 0.956066) (xy 2.81152 1.003666) (xy 2.877058 1.062607)
    (xy 2.947383 1.129081) (xy 3.018658 1.199283) (xy 3.087044 1.269406) (xy 3.148704 1.335643)
    (xy 3.1998 1.394188) (xy 3.214543 1.41224) (xy 3.26012 1.471813) (xy 3.309936 1.541119)
    (xy 3.36094 1.615552) (xy 3.410084 1.690507) (xy 3.454319 1.76138) (xy 3.490594 1.823566)
    (xy 3.506223 1.852736) (xy 3.550177 1.938574) (xy 3.489588 2.017755) (xy 3.373922 2.153034)
    (xy 3.240407 2.280414) (xy 3.090201 2.399191) (xy 2.924459 2.50866) (xy 2.744339 2.608114)
    (xy 2.550995 2.696851) (xy 2.345584 2.774163) (xy 2.152507 2.83308) (xy 1.890877 2.896021)
    (xy 1.614864 2.945907) (xy 1.325752 2.982623) (xy 1.024827 3.006052) (xy 0.713374 3.016078)
    (xy 0.392677 3.012585) (xy 0.23876 3.006221) (xy 0.064504 2.995089) (xy -0.11542 2.979368)
    (xy -0.297684 2.95955) (xy -0.478958 2.936127) (xy -0.655911 2.909592) (xy -0.825216 2.880437)
    (xy -0.983541 2.849154) (xy -1.127557 2.816235) (xy -1.230374 2.789012) (xy -1.485081 2.706468)
    (xy -1.731295 2.60655) (xy -1.967864 2.489923) (xy -2.193637 2.357252) (xy -2.407461 2.209203)
    (xy -2.608187 2.046442) (xy -2.759428 1.905226) (xy -2.923251 1.729617) (xy -3.068678 1.547138)
    (xy -3.195472 1.358241) (xy -3.3034 1.163374) (xy -3.392225 0.962989) (xy -3.461714 0.757535)
    (xy -3.511632 0.547462) (xy -3.531117 0.42672) (xy -3.539603 0.340782) (xy -3.544411 0.241225)
    (xy -3.545596 0.134404) (xy -3.543211 0.026673) (xy -3.537309 -0.075612) (xy -3.527946 -0.166097)
    (xy -3.525996 -0.179967) (xy -3.483485 -0.399206) (xy -3.420835 -0.616121) (xy -3.338103 -0.830638)
    (xy -3.235345 -1.042682) (xy -3.112618 -1.25218) (xy -2.969977 -1.459058) (xy -2.80748 -1.663242)
    (xy -2.625182 -1.864658) (xy -2.423139 -2.063232) (xy -2.201409 -2.25889) (xy -1.960048 -2.451559)
    (xy -1.699111 -2.641164) (xy -1.59512 -2.712203) (xy -1.307146 -2.894191) (xy -1.014189 -3.056536)
    (xy -0.71631 -3.199215) (xy -0.41357 -3.322205) (xy -0.10603 -3.425482) (xy 0.20625 -3.509024)
    (xy 0.523209 -3.572808) (xy 0.77216 -3.608651) (xy 0.854871 -3.616689) (xy 0.951464 -3.623031)
    (xy 1.057403 -3.627621) (xy 1.168149 -3.630403) (xy 1.279166 -3.631321) (xy 1.385917 -3.630319)) (layer F.Cu) (width 0.01))
)
